<?xml version="1.0" encoding="utf-8"?>
<!DOCTYPE eagle SYSTEM "eagle.dtd">
<eagle version="7.0.0">
<drawing>
<settings>
<setting alwaysvectorfont="yes"/>
<setting verticaltext="up"/>
</settings>
<grid distance="0.1" unitdist="inch" unit="inch" style="lines" multiple="1" display="no" altdistance="0.01" altunitdist="inch" altunit="inch"/>
<layers>
<layer number="1" name="Top" color="4" fill="1" visible="no" active="no"/>
<layer number="16" name="Bottom" color="1" fill="1" visible="no" active="no"/>
<layer number="17" name="Pads" color="2" fill="1" visible="no" active="no"/>
<layer number="18" name="Vias" color="2" fill="1" visible="no" active="no"/>
<layer number="19" name="Unrouted" color="6" fill="1" visible="no" active="no"/>
<layer number="20" name="Dimension" color="15" fill="1" visible="no" active="no"/>
<layer number="21" name="tPlace" color="16" fill="1" visible="no" active="no"/>
<layer number="22" name="bPlace" color="7" fill="1" visible="no" active="no"/>
<layer number="23" name="tOrigins" color="15" fill="1" visible="no" active="no"/>
<layer number="24" name="bOrigins" color="15" fill="1" visible="no" active="no"/>
<layer number="25" name="tNames" color="7" fill="1" visible="no" active="no"/>
<layer number="26" name="bNames" color="7" fill="1" visible="no" active="no"/>
<layer number="27" name="tValues" color="7" fill="1" visible="no" active="no"/>
<layer number="28" name="bValues" color="7" fill="1" visible="no" active="no"/>
<layer number="29" name="tStop" color="7" fill="3" visible="no" active="no"/>
<layer number="30" name="bStop" color="7" fill="6" visible="no" active="no"/>
<layer number="31" name="tCream" color="7" fill="4" visible="no" active="no"/>
<layer number="32" name="bCream" color="7" fill="5" visible="no" active="no"/>
<layer number="33" name="tFinish" color="6" fill="3" visible="no" active="no"/>
<layer number="34" name="bFinish" color="6" fill="6" visible="no" active="no"/>
<layer number="35" name="tGlue" color="7" fill="4" visible="no" active="no"/>
<layer number="36" name="bGlue" color="7" fill="5" visible="no" active="no"/>
<layer number="37" name="tTest" color="7" fill="1" visible="no" active="no"/>
<layer number="38" name="bTest" color="7" fill="1" visible="no" active="no"/>
<layer number="39" name="tKeepout" color="4" fill="11" visible="no" active="no"/>
<layer number="40" name="bKeepout" color="1" fill="11" visible="no" active="no"/>
<layer number="41" name="tRestrict" color="4" fill="10" visible="no" active="no"/>
<layer number="42" name="bRestrict" color="1" fill="10" visible="no" active="no"/>
<layer number="43" name="vRestrict" color="2" fill="10" visible="no" active="no"/>
<layer number="44" name="Drills" color="7" fill="1" visible="no" active="no"/>
<layer number="45" name="Holes" color="7" fill="1" visible="no" active="no"/>
<layer number="46" name="Milling" color="3" fill="1" visible="no" active="no"/>
<layer number="47" name="Measures" color="7" fill="1" visible="no" active="no"/>
<layer number="48" name="Document" color="7" fill="1" visible="no" active="no"/>
<layer number="49" name="Reference" color="7" fill="1" visible="no" active="no"/>
<layer number="50" name="dxf" color="7" fill="1" visible="no" active="no"/>
<layer number="51" name="tDocu" color="14" fill="1" visible="no" active="no"/>
<layer number="52" name="bDocu" color="7" fill="1" visible="no" active="no"/>
<layer number="53" name="tGND_GNDA" color="7" fill="9" visible="no" active="no"/>
<layer number="54" name="bGND_GNDA" color="1" fill="9" visible="no" active="no"/>
<layer number="56" name="wert" color="7" fill="1" visible="no" active="no"/>
<layer number="57" name="tCAD" color="7" fill="1" visible="no" active="no"/>
<layer number="90" name="Modules" color="5" fill="1" visible="yes" active="yes"/>
<layer number="91" name="Nets" color="2" fill="1" visible="yes" active="yes"/>
<layer number="92" name="Busses" color="1" fill="1" visible="yes" active="yes"/>
<layer number="93" name="Pins" color="2" fill="1" visible="no" active="yes"/>
<layer number="94" name="Symbols" color="4" fill="1" visible="yes" active="yes"/>
<layer number="95" name="Names" color="7" fill="1" visible="yes" active="yes"/>
<layer number="96" name="Values" color="7" fill="1" visible="yes" active="yes"/>
<layer number="97" name="Info" color="7" fill="1" visible="yes" active="yes"/>
<layer number="98" name="Guide" color="6" fill="1" visible="yes" active="yes"/>
<layer number="99" name="SpiceOrder" color="7" fill="1" visible="yes" active="yes"/>
<layer number="100" name="Muster" color="7" fill="1" visible="no" active="no"/>
<layer number="101" name="Patch_Top" color="12" fill="4" visible="no" active="yes"/>
<layer number="102" name="Vscore" color="7" fill="1" visible="no" active="yes"/>
<layer number="103" name="tMap" color="7" fill="1" visible="no" active="yes"/>
<layer number="104" name="Name" color="16" fill="1" visible="no" active="yes"/>
<layer number="105" name="tPlate" color="7" fill="1" visible="no" active="yes"/>
<layer number="106" name="bPlate" color="7" fill="1" visible="no" active="yes"/>
<layer number="107" name="Crop" color="7" fill="1" visible="no" active="yes"/>
<layer number="108" name="tplace-old" color="10" fill="1" visible="no" active="yes"/>
<layer number="109" name="ref-old" color="11" fill="1" visible="no" active="yes"/>
<layer number="110" name="fp0" color="7" fill="1" visible="no" active="yes"/>
<layer number="111" name="LPC17xx" color="7" fill="1" visible="no" active="yes"/>
<layer number="112" name="tSilk" color="7" fill="1" visible="no" active="yes"/>
<layer number="113" name="IDFDebug" color="4" fill="1" visible="no" active="yes"/>
<layer number="116" name="Patch_BOT" color="9" fill="4" visible="no" active="yes"/>
<layer number="121" name="_tsilk" color="7" fill="1" visible="no" active="yes"/>
<layer number="122" name="_bsilk" color="7" fill="1" visible="no" active="yes"/>
<layer number="123" name="tTestmark" color="7" fill="1" visible="no" active="yes"/>
<layer number="124" name="bTestmark" color="7" fill="1" visible="no" active="yes"/>
<layer number="125" name="_tNames" color="7" fill="1" visible="no" active="yes"/>
<layer number="126" name="_bNames" color="7" fill="1" visible="no" active="yes"/>
<layer number="127" name="_tValues" color="7" fill="1" visible="no" active="yes"/>
<layer number="128" name="_bValues" color="7" fill="1" visible="no" active="yes"/>
<layer number="131" name="tAdjust" color="7" fill="1" visible="no" active="yes"/>
<layer number="132" name="bAdjust" color="7" fill="1" visible="no" active="yes"/>
<layer number="144" name="Drill_legend" color="7" fill="1" visible="no" active="yes"/>
<layer number="150" name="Notes" color="7" fill="1" visible="no" active="yes"/>
<layer number="151" name="HeatSink" color="7" fill="1" visible="no" active="yes"/>
<layer number="152" name="_bDocu" color="7" fill="1" visible="no" active="yes"/>
<layer number="153" name="FabDoc1" color="7" fill="1" visible="no" active="yes"/>
<layer number="154" name="FabDoc2" color="7" fill="1" visible="no" active="yes"/>
<layer number="155" name="FabDoc3" color="7" fill="1" visible="no" active="yes"/>
<layer number="199" name="Contour" color="7" fill="1" visible="no" active="yes"/>
<layer number="200" name="200bmp" color="1" fill="10" visible="no" active="yes"/>
<layer number="201" name="201bmp" color="2" fill="10" visible="no" active="yes"/>
<layer number="202" name="202bmp" color="3" fill="10" visible="no" active="yes"/>
<layer number="203" name="203bmp" color="4" fill="10" visible="no" active="yes"/>
<layer number="204" name="204bmp" color="5" fill="10" visible="no" active="yes"/>
<layer number="205" name="205bmp" color="6" fill="10" visible="no" active="yes"/>
<layer number="206" name="206bmp" color="7" fill="10" visible="no" active="yes"/>
<layer number="207" name="207bmp" color="8" fill="10" visible="no" active="yes"/>
<layer number="208" name="208bmp" color="9" fill="10" visible="no" active="yes"/>
<layer number="209" name="209bmp" color="7" fill="1" visible="no" active="yes"/>
<layer number="210" name="210bmp" color="7" fill="1" visible="no" active="yes"/>
<layer number="211" name="211bmp" color="7" fill="1" visible="no" active="yes"/>
<layer number="212" name="212bmp" color="7" fill="1" visible="no" active="yes"/>
<layer number="213" name="213bmp" color="7" fill="1" visible="no" active="yes"/>
<layer number="214" name="214bmp" color="7" fill="1" visible="no" active="yes"/>
<layer number="215" name="215bmp" color="7" fill="1" visible="no" active="yes"/>
<layer number="216" name="216bmp" color="7" fill="1" visible="no" active="yes"/>
<layer number="217" name="217bmp" color="18" fill="1" visible="no" active="no"/>
<layer number="218" name="218bmp" color="19" fill="1" visible="no" active="no"/>
<layer number="219" name="219bmp" color="20" fill="1" visible="no" active="no"/>
<layer number="220" name="220bmp" color="21" fill="1" visible="no" active="no"/>
<layer number="221" name="221bmp" color="22" fill="1" visible="no" active="no"/>
<layer number="222" name="222bmp" color="23" fill="1" visible="no" active="no"/>
<layer number="223" name="223bmp" color="24" fill="1" visible="no" active="no"/>
<layer number="224" name="224bmp" color="25" fill="1" visible="no" active="no"/>
<layer number="248" name="Housing" color="7" fill="1" visible="no" active="yes"/>
<layer number="249" name="Edge" color="7" fill="1" visible="no" active="yes"/>
<layer number="250" name="Descript" color="3" fill="1" visible="no" active="no"/>
<layer number="251" name="SMDround" color="12" fill="11" visible="no" active="no"/>
<layer number="254" name="cooling" color="7" fill="1" visible="no" active="yes"/>
</layers>
<schematic xreflabel="%F%N/%S.%C%R" xrefpart="/%S.%C%R">
<libraries>
<library name="SparkFun-Connectors">
<description>&lt;h3&gt;SparkFun Electronics' preferred foot prints&lt;/h3&gt;
In this library you'll find connectors and sockets- basically anything that can be plugged into or onto.&lt;br&gt;&lt;br&gt;
We've spent an enormous amount of time creating and checking these footprints and parts, but it is the end user's responsibility to ensure correctness and suitablity for a given componet or application. If you enjoy using this library, please buy one of our products at www.sparkfun.com.
&lt;br&gt;&lt;br&gt;
&lt;b&gt;Licensing:&lt;/b&gt; Creative Commons ShareAlike 4.0 International - https://creativecommons.org/licenses/by-sa/4.0/ 
&lt;br&gt;&lt;br&gt;
You are welcome to use this library for commercial purposes. For attribution, we ask that when you begin to sell your device using our footprint, you email us with a link to the product being sold. We want bragging rights that we helped (in a very small part) to create your 8th world wonder. We would like the opportunity to feature your device on our homepage.</description>
<packages>
<package name="1X08">
<wire x1="14.605" y1="1.27" x2="15.875" y2="1.27" width="0.2032" layer="21"/>
<wire x1="15.875" y1="1.27" x2="16.51" y2="0.635" width="0.2032" layer="21"/>
<wire x1="16.51" y1="-0.635" x2="15.875" y2="-1.27" width="0.2032" layer="21"/>
<wire x1="11.43" y1="0.635" x2="12.065" y2="1.27" width="0.2032" layer="21"/>
<wire x1="12.065" y1="1.27" x2="13.335" y2="1.27" width="0.2032" layer="21"/>
<wire x1="13.335" y1="1.27" x2="13.97" y2="0.635" width="0.2032" layer="21"/>
<wire x1="13.97" y1="-0.635" x2="13.335" y2="-1.27" width="0.2032" layer="21"/>
<wire x1="13.335" y1="-1.27" x2="12.065" y2="-1.27" width="0.2032" layer="21"/>
<wire x1="12.065" y1="-1.27" x2="11.43" y2="-0.635" width="0.2032" layer="21"/>
<wire x1="14.605" y1="1.27" x2="13.97" y2="0.635" width="0.2032" layer="21"/>
<wire x1="13.97" y1="-0.635" x2="14.605" y2="-1.27" width="0.2032" layer="21"/>
<wire x1="15.875" y1="-1.27" x2="14.605" y2="-1.27" width="0.2032" layer="21"/>
<wire x1="6.985" y1="1.27" x2="8.255" y2="1.27" width="0.2032" layer="21"/>
<wire x1="8.255" y1="1.27" x2="8.89" y2="0.635" width="0.2032" layer="21"/>
<wire x1="8.89" y1="-0.635" x2="8.255" y2="-1.27" width="0.2032" layer="21"/>
<wire x1="8.89" y1="0.635" x2="9.525" y2="1.27" width="0.2032" layer="21"/>
<wire x1="9.525" y1="1.27" x2="10.795" y2="1.27" width="0.2032" layer="21"/>
<wire x1="10.795" y1="1.27" x2="11.43" y2="0.635" width="0.2032" layer="21"/>
<wire x1="11.43" y1="-0.635" x2="10.795" y2="-1.27" width="0.2032" layer="21"/>
<wire x1="10.795" y1="-1.27" x2="9.525" y2="-1.27" width="0.2032" layer="21"/>
<wire x1="9.525" y1="-1.27" x2="8.89" y2="-0.635" width="0.2032" layer="21"/>
<wire x1="3.81" y1="0.635" x2="4.445" y2="1.27" width="0.2032" layer="21"/>
<wire x1="4.445" y1="1.27" x2="5.715" y2="1.27" width="0.2032" layer="21"/>
<wire x1="5.715" y1="1.27" x2="6.35" y2="0.635" width="0.2032" layer="21"/>
<wire x1="6.35" y1="-0.635" x2="5.715" y2="-1.27" width="0.2032" layer="21"/>
<wire x1="5.715" y1="-1.27" x2="4.445" y2="-1.27" width="0.2032" layer="21"/>
<wire x1="4.445" y1="-1.27" x2="3.81" y2="-0.635" width="0.2032" layer="21"/>
<wire x1="6.985" y1="1.27" x2="6.35" y2="0.635" width="0.2032" layer="21"/>
<wire x1="6.35" y1="-0.635" x2="6.985" y2="-1.27" width="0.2032" layer="21"/>
<wire x1="8.255" y1="-1.27" x2="6.985" y2="-1.27" width="0.2032" layer="21"/>
<wire x1="-0.635" y1="1.27" x2="0.635" y2="1.27" width="0.2032" layer="21"/>
<wire x1="0.635" y1="1.27" x2="1.27" y2="0.635" width="0.2032" layer="21"/>
<wire x1="1.27" y1="-0.635" x2="0.635" y2="-1.27" width="0.2032" layer="21"/>
<wire x1="1.27" y1="0.635" x2="1.905" y2="1.27" width="0.2032" layer="21"/>
<wire x1="1.905" y1="1.27" x2="3.175" y2="1.27" width="0.2032" layer="21"/>
<wire x1="3.175" y1="1.27" x2="3.81" y2="0.635" width="0.2032" layer="21"/>
<wire x1="3.81" y1="-0.635" x2="3.175" y2="-1.27" width="0.2032" layer="21"/>
<wire x1="3.175" y1="-1.27" x2="1.905" y2="-1.27" width="0.2032" layer="21"/>
<wire x1="1.905" y1="-1.27" x2="1.27" y2="-0.635" width="0.2032" layer="21"/>
<wire x1="-1.27" y1="0.635" x2="-1.27" y2="-0.635" width="0.2032" layer="21"/>
<wire x1="-0.635" y1="1.27" x2="-1.27" y2="0.635" width="0.2032" layer="21"/>
<wire x1="-1.27" y1="-0.635" x2="-0.635" y2="-1.27" width="0.2032" layer="21"/>
<wire x1="0.635" y1="-1.27" x2="-0.635" y2="-1.27" width="0.2032" layer="21"/>
<wire x1="17.145" y1="1.27" x2="18.415" y2="1.27" width="0.2032" layer="21"/>
<wire x1="18.415" y1="1.27" x2="19.05" y2="0.635" width="0.2032" layer="21"/>
<wire x1="19.05" y1="0.635" x2="19.05" y2="-0.635" width="0.2032" layer="21"/>
<wire x1="19.05" y1="-0.635" x2="18.415" y2="-1.27" width="0.2032" layer="21"/>
<wire x1="17.145" y1="1.27" x2="16.51" y2="0.635" width="0.2032" layer="21"/>
<wire x1="16.51" y1="-0.635" x2="17.145" y2="-1.27" width="0.2032" layer="21"/>
<wire x1="18.415" y1="-1.27" x2="17.145" y2="-1.27" width="0.2032" layer="21"/>
<pad name="1" x="0" y="0" drill="1.016" diameter="1.8796" shape="square" rot="R90"/>
<pad name="2" x="2.54" y="0" drill="1.016" diameter="1.8796" rot="R90"/>
<pad name="3" x="5.08" y="0" drill="1.016" diameter="1.8796" rot="R90"/>
<pad name="4" x="7.62" y="0" drill="1.016" diameter="1.8796" rot="R90"/>
<pad name="5" x="10.16" y="0" drill="1.016" diameter="1.8796" rot="R90"/>
<pad name="6" x="12.7" y="0" drill="1.016" diameter="1.8796" rot="R90"/>
<pad name="7" x="15.24" y="0" drill="1.016" diameter="1.8796" rot="R90"/>
<pad name="8" x="17.78" y="0" drill="1.016" diameter="1.8796" rot="R90"/>
<text x="-1.3462" y="1.8288" size="1.27" layer="25" ratio="10">&gt;NAME</text>
<text x="-1.27" y="-3.175" size="1.27" layer="27">&gt;VALUE</text>
<rectangle x1="14.986" y1="-0.254" x2="15.494" y2="0.254" layer="51"/>
<rectangle x1="12.446" y1="-0.254" x2="12.954" y2="0.254" layer="51"/>
<rectangle x1="9.906" y1="-0.254" x2="10.414" y2="0.254" layer="51"/>
<rectangle x1="7.366" y1="-0.254" x2="7.874" y2="0.254" layer="51"/>
<rectangle x1="4.826" y1="-0.254" x2="5.334" y2="0.254" layer="51"/>
<rectangle x1="2.286" y1="-0.254" x2="2.794" y2="0.254" layer="51"/>
<rectangle x1="-0.254" y1="-0.254" x2="0.254" y2="0.254" layer="51"/>
<rectangle x1="17.526" y1="-0.254" x2="18.034" y2="0.254" layer="51"/>
</package>
<package name="1X08_LOCK">
<wire x1="14.605" y1="1.27" x2="15.875" y2="1.27" width="0.2032" layer="21"/>
<wire x1="15.875" y1="1.27" x2="16.51" y2="0.635" width="0.2032" layer="21"/>
<wire x1="16.51" y1="-0.635" x2="15.875" y2="-1.27" width="0.2032" layer="21"/>
<wire x1="11.43" y1="0.635" x2="12.065" y2="1.27" width="0.2032" layer="21"/>
<wire x1="12.065" y1="1.27" x2="13.335" y2="1.27" width="0.2032" layer="21"/>
<wire x1="13.335" y1="1.27" x2="13.97" y2="0.635" width="0.2032" layer="21"/>
<wire x1="13.97" y1="-0.635" x2="13.335" y2="-1.27" width="0.2032" layer="21"/>
<wire x1="13.335" y1="-1.27" x2="12.065" y2="-1.27" width="0.2032" layer="21"/>
<wire x1="12.065" y1="-1.27" x2="11.43" y2="-0.635" width="0.2032" layer="21"/>
<wire x1="14.605" y1="1.27" x2="13.97" y2="0.635" width="0.2032" layer="21"/>
<wire x1="13.97" y1="-0.635" x2="14.605" y2="-1.27" width="0.2032" layer="21"/>
<wire x1="15.875" y1="-1.27" x2="14.605" y2="-1.27" width="0.2032" layer="21"/>
<wire x1="6.985" y1="1.27" x2="8.255" y2="1.27" width="0.2032" layer="21"/>
<wire x1="8.255" y1="1.27" x2="8.89" y2="0.635" width="0.2032" layer="21"/>
<wire x1="8.89" y1="-0.635" x2="8.255" y2="-1.27" width="0.2032" layer="21"/>
<wire x1="8.89" y1="0.635" x2="9.525" y2="1.27" width="0.2032" layer="21"/>
<wire x1="9.525" y1="1.27" x2="10.795" y2="1.27" width="0.2032" layer="21"/>
<wire x1="10.795" y1="1.27" x2="11.43" y2="0.635" width="0.2032" layer="21"/>
<wire x1="11.43" y1="-0.635" x2="10.795" y2="-1.27" width="0.2032" layer="21"/>
<wire x1="10.795" y1="-1.27" x2="9.525" y2="-1.27" width="0.2032" layer="21"/>
<wire x1="9.525" y1="-1.27" x2="8.89" y2="-0.635" width="0.2032" layer="21"/>
<wire x1="3.81" y1="0.635" x2="4.445" y2="1.27" width="0.2032" layer="21"/>
<wire x1="4.445" y1="1.27" x2="5.715" y2="1.27" width="0.2032" layer="21"/>
<wire x1="5.715" y1="1.27" x2="6.35" y2="0.635" width="0.2032" layer="21"/>
<wire x1="6.35" y1="-0.635" x2="5.715" y2="-1.27" width="0.2032" layer="21"/>
<wire x1="5.715" y1="-1.27" x2="4.445" y2="-1.27" width="0.2032" layer="21"/>
<wire x1="4.445" y1="-1.27" x2="3.81" y2="-0.635" width="0.2032" layer="21"/>
<wire x1="6.985" y1="1.27" x2="6.35" y2="0.635" width="0.2032" layer="21"/>
<wire x1="6.35" y1="-0.635" x2="6.985" y2="-1.27" width="0.2032" layer="21"/>
<wire x1="8.255" y1="-1.27" x2="6.985" y2="-1.27" width="0.2032" layer="21"/>
<wire x1="-0.635" y1="1.27" x2="0.635" y2="1.27" width="0.2032" layer="21"/>
<wire x1="0.635" y1="1.27" x2="1.27" y2="0.635" width="0.2032" layer="21"/>
<wire x1="1.27" y1="-0.635" x2="0.635" y2="-1.27" width="0.2032" layer="21"/>
<wire x1="1.27" y1="0.635" x2="1.905" y2="1.27" width="0.2032" layer="21"/>
<wire x1="1.905" y1="1.27" x2="3.175" y2="1.27" width="0.2032" layer="21"/>
<wire x1="3.175" y1="1.27" x2="3.81" y2="0.635" width="0.2032" layer="21"/>
<wire x1="3.81" y1="-0.635" x2="3.175" y2="-1.27" width="0.2032" layer="21"/>
<wire x1="3.175" y1="-1.27" x2="1.905" y2="-1.27" width="0.2032" layer="21"/>
<wire x1="1.905" y1="-1.27" x2="1.27" y2="-0.635" width="0.2032" layer="21"/>
<wire x1="-1.27" y1="0.635" x2="-1.27" y2="-0.635" width="0.2032" layer="21"/>
<wire x1="-0.635" y1="1.27" x2="-1.27" y2="0.635" width="0.2032" layer="21"/>
<wire x1="-1.27" y1="-0.635" x2="-0.635" y2="-1.27" width="0.2032" layer="21"/>
<wire x1="0.635" y1="-1.27" x2="-0.635" y2="-1.27" width="0.2032" layer="21"/>
<wire x1="17.145" y1="1.27" x2="18.415" y2="1.27" width="0.2032" layer="21"/>
<wire x1="18.415" y1="1.27" x2="19.05" y2="0.635" width="0.2032" layer="21"/>
<wire x1="19.05" y1="0.635" x2="19.05" y2="-0.635" width="0.2032" layer="21"/>
<wire x1="19.05" y1="-0.635" x2="18.415" y2="-1.27" width="0.2032" layer="21"/>
<wire x1="17.145" y1="1.27" x2="16.51" y2="0.635" width="0.2032" layer="21"/>
<wire x1="16.51" y1="-0.635" x2="17.145" y2="-1.27" width="0.2032" layer="21"/>
<wire x1="18.415" y1="-1.27" x2="17.145" y2="-1.27" width="0.2032" layer="21"/>
<pad name="1" x="0" y="0.127" drill="1.016" diameter="1.8796" shape="square" rot="R90"/>
<pad name="2" x="2.54" y="-0.127" drill="1.016" diameter="1.8796" rot="R90"/>
<pad name="3" x="5.08" y="0.127" drill="1.016" diameter="1.8796" rot="R90"/>
<pad name="4" x="7.62" y="-0.127" drill="1.016" diameter="1.8796" rot="R90"/>
<pad name="5" x="10.16" y="0.127" drill="1.016" diameter="1.8796" rot="R90"/>
<pad name="6" x="12.7" y="-0.127" drill="1.016" diameter="1.8796" rot="R90"/>
<pad name="7" x="15.24" y="0.127" drill="1.016" diameter="1.8796" rot="R90"/>
<pad name="8" x="17.78" y="-0.127" drill="1.016" diameter="1.8796" rot="R90"/>
<text x="-1.3462" y="1.8288" size="1.27" layer="25" ratio="10">&gt;NAME</text>
<text x="-1.27" y="-3.175" size="1.27" layer="27">&gt;VALUE</text>
<rectangle x1="14.986" y1="-0.254" x2="15.494" y2="0.254" layer="51"/>
<rectangle x1="12.446" y1="-0.254" x2="12.954" y2="0.254" layer="51"/>
<rectangle x1="9.906" y1="-0.254" x2="10.414" y2="0.254" layer="51"/>
<rectangle x1="7.366" y1="-0.254" x2="7.874" y2="0.254" layer="51"/>
<rectangle x1="4.826" y1="-0.254" x2="5.334" y2="0.254" layer="51"/>
<rectangle x1="2.286" y1="-0.254" x2="2.794" y2="0.254" layer="51"/>
<rectangle x1="-0.254" y1="-0.254" x2="0.254" y2="0.254" layer="51"/>
<rectangle x1="17.526" y1="-0.254" x2="18.034" y2="0.254" layer="51"/>
</package>
<package name="1X08_LOCK_LONGPADS">
<wire x1="1.524" y1="0" x2="1.016" y2="0" width="0.2032" layer="21"/>
<wire x1="4.064" y1="0" x2="3.556" y2="0" width="0.2032" layer="21"/>
<wire x1="6.604" y1="0" x2="6.096" y2="0" width="0.2032" layer="21"/>
<wire x1="9.144" y1="0" x2="8.636" y2="0" width="0.2032" layer="21"/>
<wire x1="11.684" y1="0" x2="11.176" y2="0" width="0.2032" layer="21"/>
<wire x1="-1.27" y1="0" x2="-1.016" y2="0" width="0.2032" layer="21"/>
<wire x1="-1.27" y1="0" x2="-1.27" y2="0.9906" width="0.2032" layer="21"/>
<wire x1="-1.27" y1="0.9906" x2="-0.9906" y2="1.27" width="0.2032" layer="21"/>
<wire x1="-1.27" y1="0" x2="-1.27" y2="-0.9906" width="0.2032" layer="21"/>
<wire x1="-1.27" y1="-0.9906" x2="-0.9906" y2="-1.27" width="0.2032" layer="21"/>
<wire x1="14.224" y1="0" x2="13.716" y2="0" width="0.2032" layer="21"/>
<wire x1="16.764" y1="0" x2="16.256" y2="0" width="0.2032" layer="21"/>
<wire x1="19.05" y1="0" x2="19.05" y2="-0.9906" width="0.2032" layer="21"/>
<wire x1="19.05" y1="-0.9906" x2="18.7706" y2="-1.27" width="0.2032" layer="21"/>
<wire x1="19.05" y1="0" x2="19.05" y2="0.9906" width="0.2032" layer="21"/>
<wire x1="19.05" y1="0.9906" x2="18.7706" y2="1.27" width="0.2032" layer="21"/>
<wire x1="19.05" y1="0" x2="18.796" y2="0" width="0.2032" layer="21"/>
<pad name="1" x="0" y="0.127" drill="1.016" shape="long" rot="R90"/>
<pad name="2" x="2.54" y="-0.127" drill="1.016" shape="long" rot="R90"/>
<pad name="3" x="5.08" y="0.127" drill="1.016" shape="long" rot="R90"/>
<pad name="4" x="7.62" y="-0.127" drill="1.016" shape="long" rot="R90"/>
<pad name="5" x="10.16" y="0.127" drill="1.016" shape="long" rot="R90"/>
<pad name="6" x="12.7" y="-0.127" drill="1.016" shape="long" rot="R90"/>
<pad name="7" x="15.24" y="0.127" drill="1.016" shape="long" rot="R90"/>
<pad name="8" x="17.78" y="-0.127" drill="1.016" shape="long" rot="R90"/>
<text x="-1.27" y="1.905" size="1.27" layer="25" font="vector">&gt;NAME</text>
<text x="-1.27" y="-3.175" size="1.27" layer="27" font="vector">&gt;VALUE</text>
<rectangle x1="-0.2921" y1="-0.2921" x2="0.2921" y2="0.2921" layer="51"/>
<rectangle x1="2.2479" y1="-0.2921" x2="2.8321" y2="0.2921" layer="51"/>
<rectangle x1="4.7879" y1="-0.2921" x2="5.3721" y2="0.2921" layer="51"/>
<rectangle x1="7.3279" y1="-0.2921" x2="7.9121" y2="0.2921" layer="51" rot="R90"/>
<rectangle x1="9.8679" y1="-0.2921" x2="10.4521" y2="0.2921" layer="51"/>
<rectangle x1="12.4079" y1="-0.2921" x2="12.9921" y2="0.2921" layer="51"/>
<rectangle x1="14.9479" y1="-0.2921" x2="15.5321" y2="0.2921" layer="51"/>
<rectangle x1="17.4879" y1="-0.2921" x2="18.0721" y2="0.2921" layer="51"/>
</package>
<package name="1X08_LONGPADS">
<wire x1="-1.27" y1="0.635" x2="-1.27" y2="-0.635" width="0.2032" layer="21"/>
<wire x1="19.05" y1="0.635" x2="19.05" y2="-0.635" width="0.2032" layer="21"/>
<pad name="1" x="0" y="0" drill="1.1176" diameter="1.8796" shape="long" rot="R90"/>
<pad name="2" x="2.54" y="0" drill="1.1176" diameter="1.8796" shape="long" rot="R90"/>
<pad name="3" x="5.08" y="0" drill="1.1176" diameter="1.8796" shape="long" rot="R90"/>
<pad name="4" x="7.62" y="0" drill="1.1176" diameter="1.8796" shape="long" rot="R90"/>
<pad name="5" x="10.16" y="0" drill="1.1176" diameter="1.8796" shape="long" rot="R90"/>
<pad name="6" x="12.7" y="0" drill="1.1176" diameter="1.8796" shape="long" rot="R90"/>
<pad name="7" x="15.24" y="0" drill="1.1176" diameter="1.8796" shape="long" rot="R90"/>
<pad name="8" x="17.78" y="0" drill="1.1176" diameter="1.8796" shape="long" rot="R90"/>
<text x="-1.3462" y="2.4638" size="1.27" layer="25" ratio="10">&gt;NAME</text>
<text x="-1.27" y="-3.81" size="1.27" layer="27">&gt;VALUE</text>
<rectangle x1="14.986" y1="-0.254" x2="15.494" y2="0.254" layer="51"/>
<rectangle x1="12.446" y1="-0.254" x2="12.954" y2="0.254" layer="51"/>
<rectangle x1="9.906" y1="-0.254" x2="10.414" y2="0.254" layer="51"/>
<rectangle x1="7.366" y1="-0.254" x2="7.874" y2="0.254" layer="51"/>
<rectangle x1="4.826" y1="-0.254" x2="5.334" y2="0.254" layer="51"/>
<rectangle x1="2.286" y1="-0.254" x2="2.794" y2="0.254" layer="51"/>
<rectangle x1="-0.254" y1="-0.254" x2="0.254" y2="0.254" layer="51"/>
<rectangle x1="17.526" y1="-0.254" x2="18.034" y2="0.254" layer="51"/>
</package>
<package name="SCREWTERMINAL-3.5MM-8">
<wire x1="-2.3" y1="3.4" x2="26.76" y2="3.4" width="0.2032" layer="21"/>
<wire x1="26.76" y1="3.4" x2="26.76" y2="-2.8" width="0.2032" layer="21"/>
<wire x1="26.76" y1="-2.8" x2="26.76" y2="-3.6" width="0.2032" layer="21"/>
<wire x1="26.76" y1="-3.6" x2="-2.3" y2="-3.6" width="0.2032" layer="21"/>
<wire x1="-2.3" y1="-3.6" x2="-2.3" y2="-2.8" width="0.2032" layer="21"/>
<wire x1="-2.3" y1="-2.8" x2="-2.3" y2="3.4" width="0.2032" layer="21"/>
<wire x1="26.76" y1="-2.8" x2="-2.3" y2="-2.8" width="0.2032" layer="21"/>
<wire x1="-2.3" y1="-1.35" x2="-2.7" y2="-1.35" width="0.2032" layer="51"/>
<wire x1="-2.7" y1="-1.35" x2="-2.7" y2="-2.35" width="0.2032" layer="51"/>
<wire x1="-2.7" y1="-2.35" x2="-2.3" y2="-2.35" width="0.2032" layer="51"/>
<wire x1="26.76" y1="3.15" x2="27.16" y2="3.15" width="0.2032" layer="51"/>
<wire x1="27.16" y1="3.15" x2="27.16" y2="2.15" width="0.2032" layer="51"/>
<wire x1="27.16" y1="2.15" x2="26.76" y2="2.15" width="0.2032" layer="51"/>
<pad name="1" x="0" y="0" drill="1.2" diameter="2.032" shape="square"/>
<pad name="2" x="3.5" y="0" drill="1.2" diameter="2.032"/>
<pad name="3" x="7" y="0" drill="1.2" diameter="2.032"/>
<pad name="4" x="10.5" y="0" drill="1.2" diameter="2.032"/>
<pad name="5" x="14" y="0" drill="1.2" diameter="2.032"/>
<pad name="6" x="17.5" y="0" drill="1.2" diameter="2.032"/>
<pad name="7" x="21" y="0" drill="1.2" diameter="2.032"/>
<pad name="8" x="24.5" y="0" drill="1.2" diameter="2.032"/>
<text x="-1.27" y="2.54" size="0.4064" layer="25">&gt;NAME</text>
<text x="-1.27" y="1.27" size="0.4064" layer="27">&gt;VALUE</text>
</package>
<package name="1X08_SMD">
<wire x1="1.37" y1="1.25" x2="-19.15" y2="1.25" width="0.127" layer="51"/>
<wire x1="-19.15" y1="1.25" x2="-19.15" y2="-1.25" width="0.127" layer="51"/>
<wire x1="-19.15" y1="-1.25" x2="1.37" y2="-1.25" width="0.127" layer="51"/>
<wire x1="1.37" y1="-1.25" x2="1.37" y2="1.25" width="0.127" layer="51"/>
<wire x1="1.37" y1="1.25" x2="1.37" y2="-1.25" width="0.127" layer="21"/>
<wire x1="-19.15" y1="-1.25" x2="-19.15" y2="1.25" width="0.127" layer="21"/>
<wire x1="0.85" y1="1.25" x2="1.37" y2="1.25" width="0.127" layer="21"/>
<wire x1="-19.15" y1="1.25" x2="-15.963" y2="1.25" width="0.127" layer="21"/>
<wire x1="-18.63" y1="-1.25" x2="-19.15" y2="-1.25" width="0.127" layer="21"/>
<wire x1="1.37" y1="-1.25" x2="-1.817" y2="-1.25" width="0.127" layer="21"/>
<wire x1="-4.377" y1="1.25" x2="-0.703" y2="1.25" width="0.127" layer="21"/>
<wire x1="-9.457" y1="1.25" x2="-5.783" y2="1.25" width="0.127" layer="21"/>
<wire x1="-14.537" y1="1.25" x2="-10.863" y2="1.25" width="0.127" layer="21"/>
<wire x1="-3.329" y1="-1.25" x2="-6.831" y2="-1.25" width="0.127" layer="21"/>
<wire x1="-8.409" y1="-1.25" x2="-11.911" y2="-1.25" width="0.127" layer="21"/>
<wire x1="-13.489" y1="-1.25" x2="-16.991" y2="-1.25" width="0.127" layer="21"/>
<smd name="7" x="-15.24" y="1.65" dx="2" dy="1" layer="1" rot="R90"/>
<smd name="5" x="-10.16" y="1.65" dx="2" dy="1" layer="1" rot="R90"/>
<smd name="3" x="-5.08" y="1.65" dx="2" dy="1" layer="1" rot="R90"/>
<smd name="1" x="0" y="1.65" dx="2" dy="1" layer="1" rot="R90"/>
<smd name="8" x="-17.78" y="-1.65" dx="2" dy="1" layer="1" rot="R90"/>
<smd name="6" x="-12.7" y="-1.65" dx="2" dy="1" layer="1" rot="R90"/>
<smd name="4" x="-7.62" y="-1.65" dx="2" dy="1" layer="1" rot="R90"/>
<smd name="2" x="-2.54" y="-1.65" dx="2" dy="1" layer="1" rot="R90"/>
<text x="-19.05" y="2.921" size="1.27" layer="25" ratio="10">&gt;NAME</text>
<text x="-19.05" y="-4.191" size="1.27" layer="27">&gt;VALUE</text>
</package>
<package name="1X08_SMD_ALT">
<wire x1="1.37" y1="1.25" x2="-19.15" y2="1.25" width="0.127" layer="51"/>
<wire x1="-19.15" y1="1.25" x2="-19.15" y2="-1.25" width="0.127" layer="51"/>
<wire x1="-19.15" y1="-1.25" x2="1.37" y2="-1.25" width="0.127" layer="51"/>
<wire x1="1.37" y1="-1.25" x2="1.37" y2="1.25" width="0.127" layer="51"/>
<wire x1="-19.15" y1="1.25" x2="-19.15" y2="-1.25" width="0.127" layer="21"/>
<wire x1="1.37" y1="-1.25" x2="1.37" y2="1.25" width="0.127" layer="21"/>
<wire x1="-18.63" y1="1.25" x2="-19.15" y2="1.25" width="0.127" layer="21"/>
<wire x1="1.37" y1="1.25" x2="-1.817" y2="1.25" width="0.127" layer="21"/>
<wire x1="0.85" y1="-1.25" x2="1.37" y2="-1.25" width="0.127" layer="21"/>
<wire x1="-19.15" y1="-1.25" x2="-15.963" y2="-1.25" width="0.127" layer="21"/>
<wire x1="-13.403" y1="1.25" x2="-17.077" y2="1.25" width="0.127" layer="21"/>
<wire x1="-8.323" y1="1.25" x2="-11.997" y2="1.25" width="0.127" layer="21"/>
<wire x1="-3.243" y1="1.25" x2="-6.917" y2="1.25" width="0.127" layer="21"/>
<wire x1="-14.451" y1="-1.25" x2="-10.949" y2="-1.25" width="0.127" layer="21"/>
<wire x1="-9.371" y1="-1.25" x2="-5.869" y2="-1.25" width="0.127" layer="21"/>
<wire x1="-4.291" y1="-1.25" x2="-0.789" y2="-1.25" width="0.127" layer="21"/>
<smd name="7" x="-15.24" y="-1.65" dx="2" dy="1" layer="1" rot="R270"/>
<smd name="5" x="-10.16" y="-1.65" dx="2" dy="1" layer="1" rot="R270"/>
<smd name="3" x="-5.08" y="-1.65" dx="2" dy="1" layer="1" rot="R270"/>
<smd name="1" x="0" y="-1.65" dx="2" dy="1" layer="1" rot="R270"/>
<smd name="8" x="-17.78" y="1.65" dx="2" dy="1" layer="1" rot="R270"/>
<smd name="6" x="-12.7" y="1.65" dx="2" dy="1" layer="1" rot="R270"/>
<smd name="4" x="-7.62" y="1.65" dx="2" dy="1" layer="1" rot="R270"/>
<smd name="2" x="-2.54" y="1.65" dx="2" dy="1" layer="1" rot="R270"/>
<text x="-19.05" y="2.921" size="1.27" layer="25" ratio="10">&gt;NAME</text>
<text x="-19.05" y="-4.191" size="1.27" layer="27">&gt;VALUE</text>
</package>
<package name="1X08_SMD_COMBINED">
<wire x1="-1.37" y1="-1.25" x2="-1.37" y2="1.25" width="0.127" layer="21"/>
<wire x1="19.15" y1="1.25" x2="19.15" y2="-1.25" width="0.127" layer="21"/>
<wire x1="-0.85" y1="-1.25" x2="-1.37" y2="-1.25" width="0.127" layer="21"/>
<wire x1="19.15" y1="-1.25" x2="18.503" y2="-1.25" width="0.127" layer="21"/>
<wire x1="18.63" y1="1.25" x2="19.15" y2="1.25" width="0.127" layer="21"/>
<wire x1="-1.37" y1="1.25" x2="-0.723" y2="1.25" width="0.127" layer="21"/>
<wire x1="14.537" y1="-1.25" x2="13.403" y2="-1.25" width="0.127" layer="21"/>
<wire x1="0.789" y1="1.25" x2="1.751" y2="1.25" width="0.127" layer="21"/>
<wire x1="3.329" y1="1.25" x2="4.291" y2="1.25" width="0.127" layer="21"/>
<wire x1="5.869" y1="1.25" x2="6.831" y2="1.25" width="0.127" layer="21"/>
<wire x1="8.409" y1="1.25" x2="9.371" y2="1.25" width="0.127" layer="21"/>
<wire x1="10.949" y1="1.25" x2="11.911" y2="1.25" width="0.127" layer="21"/>
<wire x1="13.489" y1="1.25" x2="14.451" y2="1.25" width="0.127" layer="21"/>
<wire x1="16.029" y1="1.25" x2="16.991" y2="1.25" width="0.127" layer="21"/>
<wire x1="17.077" y1="-1.25" x2="15.943" y2="-1.25" width="0.127" layer="21"/>
<wire x1="11.997" y1="-1.25" x2="10.863" y2="-1.25" width="0.127" layer="21"/>
<wire x1="9.457" y1="-1.25" x2="8.323" y2="-1.25" width="0.127" layer="21"/>
<wire x1="6.917" y1="-1.25" x2="5.783" y2="-1.25" width="0.127" layer="21"/>
<wire x1="4.377" y1="-1.25" x2="3.243" y2="-1.25" width="0.127" layer="21"/>
<wire x1="1.837" y1="-1.25" x2="0.703" y2="-1.25" width="0.127" layer="21"/>
<wire x1="17.78" y1="1.27" x2="17.78" y2="-1.27" width="0.4064" layer="1"/>
<wire x1="15.24" y1="1.27" x2="15.24" y2="-1.27" width="0.4064" layer="1"/>
<wire x1="12.7" y1="1.27" x2="12.7" y2="-1.27" width="0.4064" layer="1"/>
<wire x1="10.16" y1="1.27" x2="10.16" y2="-1.27" width="0.4064" layer="1"/>
<wire x1="7.62" y1="1.27" x2="7.62" y2="-1.27" width="0.4064" layer="1"/>
<wire x1="5.08" y1="1.27" x2="5.08" y2="-1.27" width="0.4064" layer="1"/>
<wire x1="2.54" y1="1.27" x2="2.54" y2="-1.27" width="0.4064" layer="1"/>
<wire x1="0" y1="1.27" x2="0" y2="-1.27" width="0.4064" layer="1"/>
<smd name="7@2" x="15.24" y="-1.65" dx="2" dy="1" layer="1" rot="R270"/>
<smd name="5@2" x="10.16" y="-1.65" dx="2" dy="1" layer="1" rot="R270"/>
<smd name="3@2" x="5.08" y="-1.65" dx="2" dy="1" layer="1" rot="R270"/>
<smd name="8@2" x="17.78" y="1.65" dx="2" dy="1" layer="1" rot="R270"/>
<smd name="6@2" x="12.7" y="1.65" dx="2" dy="1" layer="1" rot="R270"/>
<smd name="4@2" x="7.62" y="1.65" dx="2" dy="1" layer="1" rot="R270"/>
<smd name="2@2" x="2.54" y="1.65" dx="2" dy="1" layer="1" rot="R270"/>
<smd name="1" x="0" y="1.65" dx="2" dy="1" layer="1" rot="R90"/>
<smd name="2" x="2.54" y="-1.65" dx="2" dy="1" layer="1" rot="R90"/>
<smd name="3" x="5.08" y="1.65" dx="2" dy="1" layer="1" rot="R90"/>
<smd name="4" x="7.62" y="-1.65" dx="2" dy="1" layer="1" rot="R90"/>
<smd name="5" x="10.16" y="1.65" dx="2" dy="1" layer="1" rot="R90"/>
<smd name="6" x="12.7" y="-1.65" dx="2" dy="1" layer="1" rot="R90"/>
<smd name="7" x="15.24" y="1.65" dx="2" dy="1" layer="1" rot="R90"/>
<smd name="8" x="17.78" y="-1.65" dx="2" dy="1" layer="1" rot="R270"/>
<smd name="1@2" x="0" y="-1.65" dx="2" dy="1" layer="1" rot="R270"/>
<text x="0" y="2.921" size="1.27" layer="25" ratio="10">&gt;NAME</text>
<text x="0" y="-4.191" size="1.27" layer="27">&gt;VALUE</text>
</package>
<package name="BM08B-SRSS-TB">
<description>JST crimp connector: 1mm pitch, top entry</description>
<wire x1="-5" y1="3.3" x2="5" y2="3.3" width="0.127" layer="51"/>
<wire x1="-5" y1="0.4" x2="-5" y2="3.3" width="0.127" layer="51"/>
<wire x1="5" y1="0.4" x2="5" y2="3.3" width="0.127" layer="51"/>
<wire x1="-5" y1="0.4" x2="5" y2="0.4" width="0.127" layer="51"/>
<wire x1="-4.1" y1="0.35" x2="-5.05" y2="0.35" width="0.2032" layer="21"/>
<wire x1="-5.05" y1="0.35" x2="-5.05" y2="1.35" width="0.2032" layer="21"/>
<wire x1="5.05" y1="0.35" x2="4.15" y2="0.35" width="0.2032" layer="21"/>
<wire x1="5.05" y1="0.35" x2="5.05" y2="1.35" width="0.2032" layer="21"/>
<wire x1="-3.9" y1="3.4" x2="3.9" y2="3.4" width="0.2032" layer="21"/>
<circle x="-4.4" y="-0.35" radius="0.1118" width="0.4064" layer="21"/>
<smd name="1" x="-3.5" y="0" dx="0.6" dy="1.55" layer="1" rot="R180"/>
<smd name="2" x="-2.5" y="0" dx="0.6" dy="1.55" layer="1" rot="R180"/>
<smd name="3" x="-1.5" y="0" dx="0.6" dy="1.55" layer="1" rot="R180"/>
<smd name="4" x="-0.5" y="0" dx="0.6" dy="1.55" layer="1" rot="R180"/>
<smd name="5" x="0.5" y="0" dx="0.6" dy="1.55" layer="1" rot="R180"/>
<smd name="6" x="1.5" y="0" dx="0.6" dy="1.55" layer="1" rot="R180"/>
<smd name="7" x="2.5" y="0" dx="0.6" dy="1.55" layer="1" rot="R180"/>
<smd name="8" x="3.5" y="0" dx="0.6" dy="1.55" layer="1" rot="R180"/>
<smd name="P$9" x="4.8" y="2.525" dx="1.8" dy="1.2" layer="1" rot="R90"/>
<smd name="P$10" x="-4.8" y="2.525" dx="1.8" dy="1.2" layer="1" rot="R90"/>
<text x="-3.8" y="2.5" size="0.4064" layer="25">&gt;NAME</text>
<text x="-3.8" y="1.3" size="0.4064" layer="27">&gt;VALUE</text>
</package>
<package name="1X08_SMD_MALE">
<text x="-1" y="3.321" size="1.27" layer="25" ratio="10">&gt;NAME</text>
<text x="-1" y="-4.591" size="1.27" layer="27">&gt;VALUE</text>
<wire x1="-1.27" y1="1.25" x2="-1.27" y2="-1.25" width="0.127" layer="51"/>
<wire x1="-1.27" y1="-1.25" x2="19.05" y2="-1.25" width="0.127" layer="51"/>
<wire x1="19.05" y1="-1.25" x2="19.05" y2="1.25" width="0.127" layer="51"/>
<wire x1="19.05" y1="1.25" x2="-1.27" y2="1.25" width="0.127" layer="51"/>
<circle x="0" y="0" radius="0.64" width="0.127" layer="51"/>
<circle x="2.54" y="0" radius="0.64" width="0.127" layer="51"/>
<circle x="5.08" y="0" radius="0.64" width="0.127" layer="51"/>
<circle x="7.62" y="0" radius="0.64" width="0.127" layer="51"/>
<circle x="10.16" y="0" radius="0.64" width="0.127" layer="51"/>
<circle x="12.7" y="0" radius="0.64" width="0.127" layer="51"/>
<rectangle x1="-0.32" y1="0" x2="0.32" y2="2.75" layer="51"/>
<rectangle x1="4.76" y1="0" x2="5.4" y2="2.75" layer="51"/>
<rectangle x1="9.84" y1="0" x2="10.48" y2="2.75" layer="51"/>
<rectangle x1="2.22" y1="-2.75" x2="2.86" y2="0" layer="51" rot="R180"/>
<rectangle x1="7.3" y1="-2.75" x2="7.94" y2="0" layer="51" rot="R180"/>
<rectangle x1="12.38" y1="-2.75" x2="13.02" y2="0" layer="51" rot="R180"/>
<smd name="1" x="0" y="0" dx="1.02" dy="6" layer="1"/>
<smd name="2" x="2.54" y="0" dx="1.02" dy="6" layer="1"/>
<smd name="3" x="5.08" y="0" dx="1.02" dy="6" layer="1"/>
<smd name="4" x="7.62" y="0" dx="1.02" dy="6" layer="1"/>
<smd name="5" x="10.16" y="0" dx="1.02" dy="6" layer="1"/>
<smd name="6" x="12.7" y="0" dx="1.02" dy="6" layer="1"/>
<wire x1="-1.27" y1="1.25" x2="-1.27" y2="-1.25" width="0.1778" layer="21"/>
<wire x1="-1.27" y1="-1.25" x2="-0.635" y2="-1.25" width="0.1778" layer="21"/>
<wire x1="-1.27" y1="1.25" x2="-0.635" y2="1.25" width="0.1778" layer="21"/>
<wire x1="0.762" y1="1.25" x2="1.778" y2="1.25" width="0.1778" layer="21"/>
<wire x1="3.302" y1="1.25" x2="4.318" y2="1.25" width="0.1778" layer="21"/>
<wire x1="5.842" y1="1.25" x2="6.858" y2="1.25" width="0.1778" layer="21"/>
<wire x1="8.382" y1="1.25" x2="9.398" y2="1.25" width="0.1778" layer="21"/>
<wire x1="10.922" y1="1.25" x2="11.938" y2="1.25" width="0.1778" layer="21"/>
<wire x1="1.778" y1="-1.25" x2="0.762" y2="-1.25" width="0.1778" layer="21"/>
<wire x1="4.318" y1="-1.25" x2="3.302" y2="-1.25" width="0.1778" layer="21"/>
<wire x1="6.858" y1="-1.25" x2="5.842" y2="-1.25" width="0.1778" layer="21"/>
<wire x1="9.398" y1="-1.25" x2="8.382" y2="-1.25" width="0.1778" layer="21"/>
<wire x1="11.938" y1="-1.25" x2="10.922" y2="-1.25" width="0.1778" layer="21"/>
<wire x1="19.05" y1="-1.25" x2="19.05" y2="1.25" width="0.1778" layer="21"/>
<circle x="15.24" y="0" radius="0.64" width="0.127" layer="51"/>
<circle x="17.78" y="0" radius="0.64" width="0.127" layer="51"/>
<rectangle x1="14.92" y1="0" x2="15.56" y2="2.75" layer="51"/>
<rectangle x1="17.46" y1="-2.75" x2="18.1" y2="0" layer="51" rot="R180"/>
<smd name="7" x="15.24" y="0" dx="1.02" dy="6" layer="1"/>
<smd name="8" x="17.78" y="0" dx="1.02" dy="6" layer="1"/>
<wire x1="16.002" y1="1.25" x2="17.018" y2="1.25" width="0.1778" layer="21"/>
<wire x1="17.018" y1="-1.25" x2="16.002" y2="-1.25" width="0.1778" layer="21"/>
<wire x1="19.05" y1="-1.25" x2="18.415" y2="-1.25" width="0.1778" layer="21"/>
<wire x1="19.05" y1="1.25" x2="18.415" y2="1.25" width="0.1778" layer="21"/>
<wire x1="13.462" y1="1.25" x2="14.478" y2="1.25" width="0.1778" layer="21"/>
<wire x1="14.478" y1="-1.25" x2="13.462" y2="-1.25" width="0.1778" layer="21"/>
</package>
<package name="1X08_NO_SILK">
<pad name="1" x="0" y="0" drill="1.016" diameter="1.8796" rot="R90"/>
<pad name="2" x="2.54" y="0" drill="1.016" diameter="1.8796" rot="R90"/>
<pad name="3" x="5.08" y="0" drill="1.016" diameter="1.8796" rot="R90"/>
<pad name="4" x="7.62" y="0" drill="1.016" diameter="1.8796" rot="R90"/>
<pad name="5" x="10.16" y="0" drill="1.016" diameter="1.8796" rot="R90"/>
<pad name="6" x="12.7" y="0" drill="1.016" diameter="1.8796" rot="R90"/>
<pad name="7" x="15.24" y="0" drill="1.016" diameter="1.8796" rot="R90"/>
<pad name="8" x="17.78" y="0" drill="1.016" diameter="1.8796" rot="R90"/>
<text x="-1.3462" y="1.8288" size="1.27" layer="25" ratio="10">&gt;NAME</text>
<text x="-1.27" y="-3.175" size="1.27" layer="27">&gt;VALUE</text>
<rectangle x1="14.986" y1="-0.254" x2="15.494" y2="0.254" layer="51"/>
<rectangle x1="12.446" y1="-0.254" x2="12.954" y2="0.254" layer="51"/>
<rectangle x1="9.906" y1="-0.254" x2="10.414" y2="0.254" layer="51"/>
<rectangle x1="7.366" y1="-0.254" x2="7.874" y2="0.254" layer="51"/>
<rectangle x1="4.826" y1="-0.254" x2="5.334" y2="0.254" layer="51"/>
<rectangle x1="2.286" y1="-0.254" x2="2.794" y2="0.254" layer="51"/>
<rectangle x1="-0.254" y1="-0.254" x2="0.254" y2="0.254" layer="51"/>
<rectangle x1="17.526" y1="-0.254" x2="18.034" y2="0.254" layer="51"/>
</package>
<package name="1X08_PIN1_NO_SILK">
<pad name="1" x="0" y="0" drill="1.016" diameter="1.8796" shape="square" rot="R90"/>
<pad name="2" x="2.54" y="0" drill="1.016" diameter="1.8796" rot="R90"/>
<pad name="3" x="5.08" y="0" drill="1.016" diameter="1.8796" rot="R90"/>
<pad name="4" x="7.62" y="0" drill="1.016" diameter="1.8796" rot="R90"/>
<pad name="5" x="10.16" y="0" drill="1.016" diameter="1.8796" rot="R90"/>
<pad name="6" x="12.7" y="0" drill="1.016" diameter="1.8796" rot="R90"/>
<pad name="7" x="15.24" y="0" drill="1.016" diameter="1.8796" rot="R90"/>
<pad name="8" x="17.78" y="0" drill="1.016" diameter="1.8796" rot="R90"/>
<text x="-1.3462" y="1.8288" size="1.27" layer="25" ratio="10">&gt;NAME</text>
<text x="-1.27" y="-3.175" size="1.27" layer="27">&gt;VALUE</text>
<rectangle x1="14.986" y1="-0.254" x2="15.494" y2="0.254" layer="51"/>
<rectangle x1="12.446" y1="-0.254" x2="12.954" y2="0.254" layer="51"/>
<rectangle x1="9.906" y1="-0.254" x2="10.414" y2="0.254" layer="51"/>
<rectangle x1="7.366" y1="-0.254" x2="7.874" y2="0.254" layer="51"/>
<rectangle x1="4.826" y1="-0.254" x2="5.334" y2="0.254" layer="51"/>
<rectangle x1="2.286" y1="-0.254" x2="2.794" y2="0.254" layer="51"/>
<rectangle x1="-0.254" y1="-0.254" x2="0.254" y2="0.254" layer="51"/>
<rectangle x1="17.526" y1="-0.254" x2="18.034" y2="0.254" layer="51"/>
</package>
</packages>
<symbols>
<symbol name="M08">
<wire x1="1.27" y1="-10.16" x2="-5.08" y2="-10.16" width="0.4064" layer="94"/>
<wire x1="-1.27" y1="-2.54" x2="0" y2="-2.54" width="0.6096" layer="94"/>
<wire x1="-1.27" y1="-5.08" x2="0" y2="-5.08" width="0.6096" layer="94"/>
<wire x1="-1.27" y1="-7.62" x2="0" y2="-7.62" width="0.6096" layer="94"/>
<wire x1="-5.08" y1="12.7" x2="-5.08" y2="-10.16" width="0.4064" layer="94"/>
<wire x1="1.27" y1="-10.16" x2="1.27" y2="12.7" width="0.4064" layer="94"/>
<wire x1="-5.08" y1="12.7" x2="1.27" y2="12.7" width="0.4064" layer="94"/>
<wire x1="-1.27" y1="2.54" x2="0" y2="2.54" width="0.6096" layer="94"/>
<wire x1="-1.27" y1="0" x2="0" y2="0" width="0.6096" layer="94"/>
<wire x1="-1.27" y1="5.08" x2="0" y2="5.08" width="0.6096" layer="94"/>
<wire x1="-1.27" y1="7.62" x2="0" y2="7.62" width="0.6096" layer="94"/>
<wire x1="-1.27" y1="10.16" x2="0" y2="10.16" width="0.6096" layer="94"/>
<text x="-5.08" y="-12.7" size="1.778" layer="96">&gt;VALUE</text>
<text x="-5.08" y="13.462" size="1.778" layer="95">&gt;NAME</text>
<pin name="1" x="5.08" y="-7.62" visible="pad" length="middle" direction="pas" swaplevel="1" rot="R180"/>
<pin name="2" x="5.08" y="-5.08" visible="pad" length="middle" direction="pas" swaplevel="1" rot="R180"/>
<pin name="3" x="5.08" y="-2.54" visible="pad" length="middle" direction="pas" swaplevel="1" rot="R180"/>
<pin name="4" x="5.08" y="0" visible="pad" length="middle" direction="pas" swaplevel="1" rot="R180"/>
<pin name="5" x="5.08" y="2.54" visible="pad" length="middle" direction="pas" swaplevel="1" rot="R180"/>
<pin name="6" x="5.08" y="5.08" visible="pad" length="middle" direction="pas" swaplevel="1" rot="R180"/>
<pin name="7" x="5.08" y="7.62" visible="pad" length="middle" direction="pas" swaplevel="1" rot="R180"/>
<pin name="8" x="5.08" y="10.16" visible="pad" length="middle" direction="pas" swaplevel="1" rot="R180"/>
</symbol>
</symbols>
<devicesets>
<deviceset name="M08" prefix="JP" uservalue="yes">
<description>&lt;b&gt;Header 8&lt;/b&gt;
Standard 8-pin 0.1" header. Use with straight break away headers (SKU : PRT-00116), right angle break away headers (PRT-00553), swiss pins (PRT-00743), machine pins (PRT-00117), and female headers (PRT-00115).</description>
<gates>
<gate name="G$1" symbol="M08" x="-2.54" y="0"/>
</gates>
<devices>
<device name="1X08" package="1X08">
<connects>
<connect gate="G$1" pin="1" pad="1"/>
<connect gate="G$1" pin="2" pad="2"/>
<connect gate="G$1" pin="3" pad="3"/>
<connect gate="G$1" pin="4" pad="4"/>
<connect gate="G$1" pin="5" pad="5"/>
<connect gate="G$1" pin="6" pad="6"/>
<connect gate="G$1" pin="7" pad="7"/>
<connect gate="G$1" pin="8" pad="8"/>
</connects>
<technologies>
<technology name=""/>
</technologies>
</device>
<device name="LOCK" package="1X08_LOCK">
<connects>
<connect gate="G$1" pin="1" pad="1"/>
<connect gate="G$1" pin="2" pad="2"/>
<connect gate="G$1" pin="3" pad="3"/>
<connect gate="G$1" pin="4" pad="4"/>
<connect gate="G$1" pin="5" pad="5"/>
<connect gate="G$1" pin="6" pad="6"/>
<connect gate="G$1" pin="7" pad="7"/>
<connect gate="G$1" pin="8" pad="8"/>
</connects>
<technologies>
<technology name=""/>
</technologies>
</device>
<device name="LOCK_LONGPADS" package="1X08_LOCK_LONGPADS">
<connects>
<connect gate="G$1" pin="1" pad="1"/>
<connect gate="G$1" pin="2" pad="2"/>
<connect gate="G$1" pin="3" pad="3"/>
<connect gate="G$1" pin="4" pad="4"/>
<connect gate="G$1" pin="5" pad="5"/>
<connect gate="G$1" pin="6" pad="6"/>
<connect gate="G$1" pin="7" pad="7"/>
<connect gate="G$1" pin="8" pad="8"/>
</connects>
<technologies>
<technology name=""/>
</technologies>
</device>
<device name="LONGPADS" package="1X08_LONGPADS">
<connects>
<connect gate="G$1" pin="1" pad="1"/>
<connect gate="G$1" pin="2" pad="2"/>
<connect gate="G$1" pin="3" pad="3"/>
<connect gate="G$1" pin="4" pad="4"/>
<connect gate="G$1" pin="5" pad="5"/>
<connect gate="G$1" pin="6" pad="6"/>
<connect gate="G$1" pin="7" pad="7"/>
<connect gate="G$1" pin="8" pad="8"/>
</connects>
<technologies>
<technology name=""/>
</technologies>
</device>
<device name="3.5MM-8" package="SCREWTERMINAL-3.5MM-8">
<connects>
<connect gate="G$1" pin="1" pad="1"/>
<connect gate="G$1" pin="2" pad="2"/>
<connect gate="G$1" pin="3" pad="3"/>
<connect gate="G$1" pin="4" pad="4"/>
<connect gate="G$1" pin="5" pad="5"/>
<connect gate="G$1" pin="6" pad="6"/>
<connect gate="G$1" pin="7" pad="7"/>
<connect gate="G$1" pin="8" pad="8"/>
</connects>
<technologies>
<technology name=""/>
</technologies>
</device>
<device name="SMD-STRAIGHT" package="1X08_SMD">
<connects>
<connect gate="G$1" pin="1" pad="1"/>
<connect gate="G$1" pin="2" pad="2"/>
<connect gate="G$1" pin="3" pad="3"/>
<connect gate="G$1" pin="4" pad="4"/>
<connect gate="G$1" pin="5" pad="5"/>
<connect gate="G$1" pin="6" pad="6"/>
<connect gate="G$1" pin="7" pad="7"/>
<connect gate="G$1" pin="8" pad="8"/>
</connects>
<technologies>
<technology name=""/>
</technologies>
</device>
<device name="SMD-STRAIGHT-ALT" package="1X08_SMD_ALT">
<connects>
<connect gate="G$1" pin="1" pad="1"/>
<connect gate="G$1" pin="2" pad="2"/>
<connect gate="G$1" pin="3" pad="3"/>
<connect gate="G$1" pin="4" pad="4"/>
<connect gate="G$1" pin="5" pad="5"/>
<connect gate="G$1" pin="6" pad="6"/>
<connect gate="G$1" pin="7" pad="7"/>
<connect gate="G$1" pin="8" pad="8"/>
</connects>
<technologies>
<technology name=""/>
</technologies>
</device>
<device name="SMD-COMBO" package="1X08_SMD_COMBINED">
<connects>
<connect gate="G$1" pin="1" pad="1"/>
<connect gate="G$1" pin="2" pad="2"/>
<connect gate="G$1" pin="3" pad="3"/>
<connect gate="G$1" pin="4" pad="4"/>
<connect gate="G$1" pin="5" pad="5"/>
<connect gate="G$1" pin="6" pad="6"/>
<connect gate="G$1" pin="7" pad="7"/>
<connect gate="G$1" pin="8" pad="8"/>
</connects>
<technologies>
<technology name=""/>
</technologies>
</device>
<device name="BM08B-SRSS-TB" package="BM08B-SRSS-TB">
<connects>
<connect gate="G$1" pin="1" pad="1"/>
<connect gate="G$1" pin="2" pad="2"/>
<connect gate="G$1" pin="3" pad="3"/>
<connect gate="G$1" pin="4" pad="4"/>
<connect gate="G$1" pin="5" pad="5"/>
<connect gate="G$1" pin="6" pad="6"/>
<connect gate="G$1" pin="7" pad="7"/>
<connect gate="G$1" pin="8" pad="8"/>
</connects>
<technologies>
<technology name=""/>
</technologies>
</device>
<device name="SMD-MALE" package="1X08_SMD_MALE">
<connects>
<connect gate="G$1" pin="1" pad="1"/>
<connect gate="G$1" pin="2" pad="2"/>
<connect gate="G$1" pin="3" pad="3"/>
<connect gate="G$1" pin="4" pad="4"/>
<connect gate="G$1" pin="5" pad="5"/>
<connect gate="G$1" pin="6" pad="6"/>
<connect gate="G$1" pin="7" pad="7"/>
<connect gate="G$1" pin="8" pad="8"/>
</connects>
<technologies>
<technology name="">
<attribute name="PROD_ID" value="CONN-11292"/>
</technology>
</technologies>
</device>
<device name="NO_SILK" package="1X08_NO_SILK">
<connects>
<connect gate="G$1" pin="1" pad="1"/>
<connect gate="G$1" pin="2" pad="2"/>
<connect gate="G$1" pin="3" pad="3"/>
<connect gate="G$1" pin="4" pad="4"/>
<connect gate="G$1" pin="5" pad="5"/>
<connect gate="G$1" pin="6" pad="6"/>
<connect gate="G$1" pin="7" pad="7"/>
<connect gate="G$1" pin="8" pad="8"/>
</connects>
<technologies>
<technology name=""/>
</technologies>
</device>
<device name="" package="1X08_PIN1_NO_SILK">
<connects>
<connect gate="G$1" pin="1" pad="1"/>
<connect gate="G$1" pin="2" pad="2"/>
<connect gate="G$1" pin="3" pad="3"/>
<connect gate="G$1" pin="4" pad="4"/>
<connect gate="G$1" pin="5" pad="5"/>
<connect gate="G$1" pin="6" pad="6"/>
<connect gate="G$1" pin="7" pad="7"/>
<connect gate="G$1" pin="8" pad="8"/>
</connects>
<technologies>
<technology name=""/>
</technologies>
</device>
</devices>
</deviceset>
</devicesets>
</library>
<library name="rveer">
<packages>
<package name="NEWHAVENLCD">
<pad name="P$1" x="0" y="0" drill="0.6" shape="octagon"/>
<pad name="P$2" x="1.5" y="0" drill="0.6" shape="octagon"/>
<pad name="P$3" x="3" y="0" drill="0.6" shape="octagon"/>
<pad name="P$4" x="4.5" y="0" drill="0.6" shape="octagon"/>
<pad name="P$5" x="6" y="0" drill="0.6" shape="octagon"/>
<pad name="P$6" x="7.5" y="0" drill="0.6" shape="octagon"/>
<pad name="P$7" x="9" y="0" drill="0.6" shape="octagon"/>
<pad name="P$8" x="10.5" y="0" drill="0.6" shape="octagon"/>
<pad name="P$9" x="12" y="0" drill="0.6" shape="octagon"/>
<pad name="P$10" x="13.5" y="0" drill="0.6" shape="octagon"/>
<pad name="P$11" x="15" y="0" drill="0.6" shape="octagon"/>
<pad name="P$12" x="16.5" y="0" drill="0.6" shape="octagon"/>
<pad name="P$13" x="18" y="0" drill="0.6" shape="octagon"/>
<pad name="P$14" x="19.5" y="0" drill="0.6" shape="octagon"/>
<pad name="P$15" x="21" y="0" drill="0.6" shape="octagon"/>
<pad name="P$16" x="22.5" y="0" drill="0.6" shape="octagon"/>
<pad name="P$17" x="24" y="0" drill="0.6" shape="octagon"/>
<pad name="A" x="-5.3" y="0.5" drill="1.2" shape="octagon"/>
<pad name="K" x="29.3" y="0.6" drill="1.2" shape="octagon" rot="R180"/>
<hole x="32.1" y="0" drill="0.6"/>
<hole x="-8.1" y="0" drill="0.6"/>
<wire x1="-9" y1="-1.5" x2="33" y2="-1.5" width="0.127" layer="21"/>
<wire x1="-9" y1="-1.5" x2="-9" y2="23" width="0.127" layer="21"/>
<wire x1="33" y1="-1.5" x2="33" y2="23" width="0.127" layer="21"/>
<wire x1="33" y1="23" x2="-9" y2="23" width="0.127" layer="21"/>
<text x="0" y="1.5" size="1.27" layer="21" align="center">1</text>
<text x="24" y="1.5" size="1.27" layer="21" align="center">17</text>
<text x="29.5" y="2.6" size="1.27" layer="21" align="center">K</text>
<text x="-5.1" y="2.5" size="1.27" layer="21" align="center">A</text>
<text x="12.7" y="2.54" size="1.27" layer="21" rot="SR0" align="center">ST7565R</text>
<hole x="-8.1" y="23.1" drill="0.6"/>
<hole x="32.1" y="23.1" drill="0.6"/>
</package>
</packages>
<symbols>
<symbol name="NEWHAVENLCD">
<pin name="V0" x="-10.16" y="22.86" length="middle"/>
<pin name="V1" x="-10.16" y="20.32" length="middle"/>
<pin name="V2" x="-10.16" y="17.78" length="middle"/>
<pin name="V3" x="-10.16" y="15.24" length="middle"/>
<pin name="V4" x="-10.16" y="12.7" length="middle"/>
<pin name="C2-" x="-10.16" y="10.16" length="middle"/>
<pin name="C2+" x="-10.16" y="7.62" length="middle"/>
<pin name="C1+" x="-10.16" y="5.08" length="middle"/>
<pin name="C1-" x="-10.16" y="2.54" length="middle"/>
<pin name="VOUT" x="-10.16" y="0" length="middle"/>
<pin name="VSS" x="-10.16" y="-2.54" length="middle"/>
<pin name="VDD" x="-10.16" y="-5.08" length="middle"/>
<pin name="SI" x="-10.16" y="-7.62" length="middle"/>
<pin name="SCL" x="-10.16" y="-10.16" length="middle"/>
<pin name="A0" x="-10.16" y="-12.7" length="middle"/>
<pin name="!RST" x="-10.16" y="-15.24" length="middle"/>
<pin name="!CS1" x="-10.16" y="-17.78" length="middle"/>
<pin name="LED-" x="20.32" y="-17.78" length="middle" rot="R180"/>
<pin name="LED+" x="20.32" y="-15.24" length="middle" rot="R180"/>
</symbol>
</symbols>
<devicesets>
<deviceset name="NEWHAVENLCD">
<gates>
<gate name="G$1" symbol="NEWHAVENLCD" x="0" y="0"/>
</gates>
<devices>
<device name="" package="NEWHAVENLCD">
<connects>
<connect gate="G$1" pin="!CS1" pad="P$17"/>
<connect gate="G$1" pin="!RST" pad="P$16"/>
<connect gate="G$1" pin="A0" pad="P$15"/>
<connect gate="G$1" pin="C1+" pad="P$8"/>
<connect gate="G$1" pin="C1-" pad="P$9"/>
<connect gate="G$1" pin="C2+" pad="P$7"/>
<connect gate="G$1" pin="C2-" pad="P$6"/>
<connect gate="G$1" pin="LED+" pad="A"/>
<connect gate="G$1" pin="LED-" pad="K"/>
<connect gate="G$1" pin="SCL" pad="P$14"/>
<connect gate="G$1" pin="SI" pad="P$13"/>
<connect gate="G$1" pin="V0" pad="P$1"/>
<connect gate="G$1" pin="V1" pad="P$2"/>
<connect gate="G$1" pin="V2" pad="P$3"/>
<connect gate="G$1" pin="V3" pad="P$4"/>
<connect gate="G$1" pin="V4" pad="P$5"/>
<connect gate="G$1" pin="VDD" pad="P$12"/>
<connect gate="G$1" pin="VOUT" pad="P$10"/>
<connect gate="G$1" pin="VSS" pad="P$11"/>
</connects>
<technologies>
<technology name=""/>
</technologies>
</device>
</devices>
</deviceset>
</devicesets>
</library>
<library name="SparkFun-Capacitors">
<description>&lt;h3&gt;SparkFun Electronics' preferred foot prints&lt;/h3&gt;
In this library you'll find resistors, capacitors, inductors, test points, jumper pads, etc.&lt;br&gt;&lt;br&gt;
We've spent an enormous amount of time creating and checking these footprints and parts, but it is the end user's responsibility to ensure correctness and suitablity for a given componet or application. If you enjoy using this library, please buy one of our products at www.sparkfun.com.
&lt;br&gt;&lt;br&gt;
&lt;b&gt;Licensing:&lt;/b&gt; Creative Commons ShareAlike 4.0 International - https://creativecommons.org/licenses/by-sa/4.0/ 
&lt;br&gt;&lt;br&gt;
You are welcome to use this library for commercial purposes. For attribution, we ask that when you begin to sell your device using our footprint, you email us with a link to the product being sold. We want bragging rights that we helped (in a very small part) to create your 8th world wonder. We would like the opportunity to feature your device on our homepage.</description>
<packages>
<package name="0805">
<wire x1="-0.3" y1="0.6" x2="0.3" y2="0.6" width="0.1524" layer="21"/>
<wire x1="-0.3" y1="-0.6" x2="0.3" y2="-0.6" width="0.1524" layer="21"/>
<smd name="1" x="-0.9" y="0" dx="0.8" dy="1.2" layer="1"/>
<smd name="2" x="0.9" y="0" dx="0.8" dy="1.2" layer="1"/>
<text x="-0.762" y="0.8255" size="0.4064" layer="25">&gt;NAME</text>
<text x="-1.016" y="-1.397" size="0.4064" layer="27">&gt;VALUE</text>
</package>
</packages>
<symbols>
<symbol name="CAP">
<wire x1="0" y1="2.54" x2="0" y2="2.032" width="0.1524" layer="94"/>
<wire x1="0" y1="0" x2="0" y2="0.508" width="0.1524" layer="94"/>
<text x="1.524" y="2.921" size="1.778" layer="95">&gt;NAME</text>
<text x="1.524" y="-2.159" size="1.778" layer="96">&gt;VALUE</text>
<rectangle x1="-2.032" y1="0.508" x2="2.032" y2="1.016" layer="94"/>
<rectangle x1="-2.032" y1="1.524" x2="2.032" y2="2.032" layer="94"/>
<pin name="1" x="0" y="5.08" visible="off" length="short" direction="pas" swaplevel="1" rot="R270"/>
<pin name="2" x="0" y="-2.54" visible="off" length="short" direction="pas" swaplevel="1" rot="R90"/>
</symbol>
</symbols>
<devicesets>
<deviceset name="1.0UF-25V-+80/-20(0805)" prefix="C" uservalue="yes">
<description>CAP-11625</description>
<gates>
<gate name="G$1" symbol="CAP" x="0" y="0"/>
</gates>
<devices>
<device name="" package="0805">
<connects>
<connect gate="G$1" pin="1" pad="1"/>
<connect gate="G$1" pin="2" pad="2"/>
</connects>
<technologies>
<technology name="">
<attribute name="PROD_ID" value="CAP-11625"/>
<attribute name="VALUE" value="1.0uF"/>
</technology>
</technologies>
</device>
</devices>
</deviceset>
</devicesets>
</library>
<library name="SparkFun-Aesthetics">
<description>&lt;h3&gt;SparkFun Electronics' preferred foot prints&lt;/h3&gt;
In this library you'll find non-functional items- supply symbols, logos, notations, frame blocks, etc.&lt;br&gt;&lt;br&gt;
We've spent an enormous amount of time creating and checking these footprints and parts, but it is the end user's responsibility to ensure correctness and suitablity for a given componet or application. If you enjoy using this library, please buy one of our products at www.sparkfun.com.
&lt;br&gt;&lt;br&gt;
&lt;b&gt;Licensing:&lt;/b&gt; Creative Commons ShareAlike 4.0 International - https://creativecommons.org/licenses/by-sa/4.0/ 
&lt;br&gt;&lt;br&gt;
You are welcome to use this library for commercial purposes. For attribution, we ask that when you begin to sell your device using our footprint, you email us with a link to the product being sold. We want bragging rights that we helped (in a very small part) to create your 8th world wonder. We would like the opportunity to feature your device on our homepage.</description>
<packages>
</packages>
<symbols>
<symbol name="DGND">
<wire x1="-1.905" y1="0" x2="1.905" y2="0" width="0.254" layer="94"/>
<text x="-2.54" y="-2.54" size="1.778" layer="96">&gt;VALUE</text>
<pin name="GND" x="0" y="2.54" visible="off" length="short" direction="sup" rot="R270"/>
</symbol>
<symbol name="VCC">
<wire x1="0.762" y1="1.27" x2="0" y2="2.54" width="0.254" layer="94"/>
<wire x1="0" y1="2.54" x2="-0.762" y2="1.27" width="0.254" layer="94"/>
<text x="-1.016" y="3.556" size="1.778" layer="96">&gt;VALUE</text>
<pin name="VCC" x="0" y="0" visible="off" length="short" direction="sup" rot="R90"/>
</symbol>
</symbols>
<devicesets>
<deviceset name="GND" prefix="GND">
<description>&lt;b&gt;SUPPLY SYMBOL&lt;/b&gt;</description>
<gates>
<gate name="1" symbol="DGND" x="0" y="0"/>
</gates>
<devices>
<device name="">
<technologies>
<technology name=""/>
</technologies>
</device>
</devices>
</deviceset>
<deviceset name="VCC" prefix="SUPPLY">
<description>&lt;b&gt;SUPPLY SYMBOL&lt;/b&gt;</description>
<gates>
<gate name="G$1" symbol="VCC" x="0" y="0"/>
</gates>
<devices>
<device name="">
<technologies>
<technology name=""/>
</technologies>
</device>
</devices>
</deviceset>
</devicesets>
</library>
<library name="SparkFun-Passives">
<description>&lt;h3&gt;SparkFun Electronics' preferred foot prints&lt;/h3&gt;
In this library you'll find resistors, capacitors, inductors, test points, jumper pads, etc.&lt;br&gt;&lt;br&gt;
We've spent an enormous amount of time creating and checking these footprints and parts, but it is the end user's responsibility to ensure correctness and suitablity for a given componet or application. If you enjoy using this library, please buy one of our products at www.sparkfun.com.
&lt;br&gt;&lt;br&gt;
&lt;b&gt;Licensing:&lt;/b&gt; Creative Commons ShareAlike 4.0 International - https://creativecommons.org/licenses/by-sa/4.0/ 
&lt;br&gt;&lt;br&gt;
You are welcome to use this library for commercial purposes. For attribution, we ask that when you begin to sell your device using our footprint, you email us with a link to the product being sold. We want bragging rights that we helped (in a very small part) to create your 8th world wonder. We would like the opportunity to feature your device on our homepage.</description>
<packages>
<package name="1206">
<wire x1="-2.473" y1="0.983" x2="2.473" y2="0.983" width="0.0508" layer="39"/>
<wire x1="2.473" y1="-0.983" x2="-2.473" y2="-0.983" width="0.0508" layer="39"/>
<wire x1="-2.473" y1="-0.983" x2="-2.473" y2="0.983" width="0.0508" layer="39"/>
<wire x1="2.473" y1="0.983" x2="2.473" y2="-0.983" width="0.0508" layer="39"/>
<wire x1="-0.965" y1="0.787" x2="0.965" y2="0.787" width="0.1016" layer="51"/>
<wire x1="-0.965" y1="-0.787" x2="0.965" y2="-0.787" width="0.1016" layer="51"/>
<smd name="1" x="-1.4" y="0" dx="1.6" dy="1.8" layer="1"/>
<smd name="2" x="1.4" y="0" dx="1.6" dy="1.8" layer="1"/>
<text x="-1.27" y="1.143" size="0.4064" layer="25">&gt;NAME</text>
<text x="-1.397" y="-1.524" size="0.4064" layer="27">&gt;VALUE</text>
<rectangle x1="-1.7018" y1="-0.8509" x2="-0.9517" y2="0.8491" layer="51"/>
<rectangle x1="0.9517" y1="-0.8491" x2="1.7018" y2="0.8509" layer="51"/>
<rectangle x1="-0.1999" y1="-0.4001" x2="0.1999" y2="0.4001" layer="35"/>
</package>
<package name="AXIAL-0.3">
<wire x1="-2.54" y1="0.762" x2="2.54" y2="0.762" width="0.2032" layer="21"/>
<wire x1="2.54" y1="0.762" x2="2.54" y2="0" width="0.2032" layer="21"/>
<wire x1="2.54" y1="0" x2="2.54" y2="-0.762" width="0.2032" layer="21"/>
<wire x1="2.54" y1="-0.762" x2="-2.54" y2="-0.762" width="0.2032" layer="21"/>
<wire x1="-2.54" y1="-0.762" x2="-2.54" y2="0" width="0.2032" layer="21"/>
<wire x1="-2.54" y1="0" x2="-2.54" y2="0.762" width="0.2032" layer="21"/>
<wire x1="2.54" y1="0" x2="2.794" y2="0" width="0.2032" layer="21"/>
<wire x1="-2.54" y1="0" x2="-2.794" y2="0" width="0.2032" layer="21"/>
<pad name="P$1" x="-3.81" y="0" drill="0.9" diameter="1.8796"/>
<pad name="P$2" x="3.81" y="0" drill="0.9" diameter="1.8796"/>
<text x="-2.54" y="1.27" size="0.4064" layer="25" font="vector">&gt;Name</text>
<text x="-2.032" y="-0.381" size="1.016" layer="21" font="vector" ratio="15">&gt;Value</text>
</package>
<package name="R2010">
<description>&lt;b&gt;RESISTOR&lt;/b&gt;&lt;p&gt;
chip</description>
<wire x1="-1.662" y1="1.245" x2="1.662" y2="1.245" width="0.1524" layer="51"/>
<wire x1="-1.637" y1="-1.245" x2="1.687" y2="-1.245" width="0.1524" layer="51"/>
<wire x1="-3.473" y1="1.483" x2="3.473" y2="1.483" width="0.0508" layer="39"/>
<wire x1="3.473" y1="1.483" x2="3.473" y2="-1.483" width="0.0508" layer="39"/>
<wire x1="3.473" y1="-1.483" x2="-3.473" y2="-1.483" width="0.0508" layer="39"/>
<wire x1="-3.473" y1="-1.483" x2="-3.473" y2="1.483" width="0.0508" layer="39"/>
<wire x1="-1.027" y1="1.245" x2="1.027" y2="1.245" width="0.1524" layer="21"/>
<wire x1="-1.002" y1="-1.245" x2="1.016" y2="-1.245" width="0.1524" layer="21"/>
<smd name="1" x="-2.2" y="0" dx="1.8" dy="2.7" layer="1"/>
<smd name="2" x="2.2" y="0" dx="1.8" dy="2.7" layer="1"/>
<text x="-2.54" y="1.5875" size="0.4064" layer="25">&gt;NAME</text>
<text x="-2.54" y="-2.032" size="0.4064" layer="27">&gt;VALUE</text>
<rectangle x1="-2.4892" y1="-1.3208" x2="-1.6393" y2="1.3292" layer="51"/>
<rectangle x1="1.651" y1="-1.3208" x2="2.5009" y2="1.3292" layer="51"/>
</package>
<package name="0805">
<wire x1="-0.3" y1="0.6" x2="0.3" y2="0.6" width="0.1524" layer="21"/>
<wire x1="-0.3" y1="-0.6" x2="0.3" y2="-0.6" width="0.1524" layer="21"/>
<smd name="1" x="-0.9" y="0" dx="0.8" dy="1.2" layer="1"/>
<smd name="2" x="0.9" y="0" dx="0.8" dy="1.2" layer="1"/>
<text x="-0.762" y="0.8255" size="0.4064" layer="25">&gt;NAME</text>
<text x="-1.016" y="-1.397" size="0.4064" layer="27">&gt;VALUE</text>
</package>
<package name="0603-RES">
<wire x1="-1.473" y1="0.983" x2="1.473" y2="0.983" width="0.0508" layer="39"/>
<wire x1="1.473" y1="0.983" x2="1.473" y2="-0.983" width="0.0508" layer="39"/>
<wire x1="1.473" y1="-0.983" x2="-1.473" y2="-0.983" width="0.0508" layer="39"/>
<wire x1="-1.473" y1="-0.983" x2="-1.473" y2="0.983" width="0.0508" layer="39"/>
<wire x1="-0.356" y1="0.432" x2="0.356" y2="0.432" width="0.1016" layer="51"/>
<wire x1="-0.356" y1="-0.419" x2="0.356" y2="-0.419" width="0.1016" layer="51"/>
<smd name="1" x="-0.85" y="0" dx="1.1" dy="1" layer="1"/>
<smd name="2" x="0.85" y="0" dx="1.1" dy="1" layer="1"/>
<text x="-0.889" y="0.762" size="0.4064" layer="25" font="vector">&gt;NAME</text>
<text x="-1.016" y="-1.143" size="0.4064" layer="27" font="vector">&gt;VALUE</text>
<rectangle x1="-0.8382" y1="-0.4699" x2="-0.3381" y2="0.4801" layer="51"/>
<rectangle x1="0.3302" y1="-0.4699" x2="0.8303" y2="0.4801" layer="51"/>
<rectangle x1="-0.1999" y1="-0.3" x2="0.1999" y2="0.3" layer="35"/>
<rectangle x1="-0.2286" y1="-0.381" x2="0.2286" y2="0.381" layer="21"/>
</package>
<package name="0402-RES">
<description>&lt;b&gt;CAPACITOR&lt;/b&gt;&lt;p&gt;
chip</description>
<wire x1="-0.245" y1="0.224" x2="0.245" y2="0.224" width="0.1524" layer="51"/>
<wire x1="0.245" y1="-0.224" x2="-0.245" y2="-0.224" width="0.1524" layer="51"/>
<wire x1="-1.473" y1="0.483" x2="1.473" y2="0.483" width="0.0508" layer="39"/>
<wire x1="1.473" y1="0.483" x2="1.473" y2="-0.483" width="0.0508" layer="39"/>
<wire x1="1.473" y1="-0.483" x2="-1.473" y2="-0.483" width="0.0508" layer="39"/>
<wire x1="-1.473" y1="-0.483" x2="-1.473" y2="0.483" width="0.0508" layer="39"/>
<smd name="1" x="-0.65" y="0" dx="0.7" dy="0.9" layer="1"/>
<smd name="2" x="0.65" y="0" dx="0.7" dy="0.9" layer="1"/>
<text x="-0.889" y="0.6985" size="0.4064" layer="25">&gt;NAME</text>
<text x="-1.0795" y="-1.143" size="0.4064" layer="27">&gt;VALUE</text>
<rectangle x1="-0.554" y1="-0.3048" x2="-0.254" y2="0.2951" layer="51"/>
<rectangle x1="0.2588" y1="-0.3048" x2="0.5588" y2="0.2951" layer="51"/>
<rectangle x1="-0.1999" y1="-0.3" x2="0.1999" y2="0.3" layer="35"/>
<rectangle x1="-0.2032" y1="-0.3556" x2="0.2032" y2="0.3556" layer="21"/>
</package>
<package name="1/6W-RES">
<description>1/6W Thru-hole Resistor - *UNPROVEN*</description>
<wire x1="-1.55" y1="0.85" x2="-1.55" y2="-0.85" width="0.2032" layer="21"/>
<wire x1="-1.55" y1="-0.85" x2="1.55" y2="-0.85" width="0.2032" layer="21"/>
<wire x1="1.55" y1="-0.85" x2="1.55" y2="0.85" width="0.2032" layer="21"/>
<wire x1="1.55" y1="0.85" x2="-1.55" y2="0.85" width="0.2032" layer="21"/>
<pad name="1" x="-2.5" y="0" drill="0.762"/>
<pad name="2" x="2.5" y="0" drill="0.762"/>
<text x="-1.2662" y="0.9552" size="0.6096" layer="25">&gt;NAME</text>
<text x="-1.423" y="-0.4286" size="0.8128" layer="21" ratio="15">&gt;VALUE</text>
</package>
<package name="R2512">
<wire x1="-2.362" y1="1.473" x2="2.387" y2="1.473" width="0.1524" layer="51"/>
<wire x1="-2.362" y1="-1.473" x2="2.387" y2="-1.473" width="0.1524" layer="51"/>
<smd name="1" x="-2.8" y="0" dx="1.8" dy="3.2" layer="1"/>
<smd name="2" x="2.8" y="0" dx="1.8" dy="3.2" layer="1"/>
<text x="-2.54" y="1.905" size="1.27" layer="25">&gt;NAME</text>
<text x="-2.54" y="-3.175" size="1.27" layer="27">&gt;VALUE</text>
<rectangle x1="-3.2004" y1="-1.5494" x2="-2.3505" y2="1.5507" layer="51"/>
<rectangle x1="2.3622" y1="-1.5494" x2="3.2121" y2="1.5507" layer="51"/>
</package>
<package name="AXIAL-0.4">
<description>1/4W Resistor, 0.4" wide&lt;p&gt;

Yageo CFR series &lt;a href="http://www.yageo.com/pdf/yageo/Leaded-R_CFR_2008.pdf"&gt;http://www.yageo.com/pdf/yageo/Leaded-R_CFR_2008.pdf&lt;/a&gt;</description>
<wire x1="-3.15" y1="-1.2" x2="-3.15" y2="1.2" width="0.2032" layer="21"/>
<wire x1="-3.15" y1="1.2" x2="3.15" y2="1.2" width="0.2032" layer="21"/>
<wire x1="3.15" y1="1.2" x2="3.15" y2="-1.2" width="0.2032" layer="21"/>
<wire x1="3.15" y1="-1.2" x2="-3.15" y2="-1.2" width="0.2032" layer="21"/>
<pad name="P$1" x="-5.08" y="0" drill="0.9" diameter="1.8796"/>
<pad name="P$2" x="5.08" y="0" drill="0.9" diameter="1.8796"/>
<text x="-3.175" y="1.905" size="0.8128" layer="25" font="vector" ratio="15">&gt;Name</text>
<text x="-2.286" y="-0.381" size="0.8128" layer="21" font="vector" ratio="15">&gt;Value</text>
</package>
<package name="AXIAL-0.5">
<description>1/2W Resistor, 0.5" wide&lt;p&gt;

Yageo CFR series &lt;a href="http://www.yageo.com/pdf/yageo/Leaded-R_CFR_2008.pdf"&gt;http://www.yageo.com/pdf/yageo/Leaded-R_CFR_2008.pdf&lt;/a&gt;</description>
<wire x1="-4.5" y1="-1.65" x2="-4.5" y2="1.65" width="0.2032" layer="21"/>
<wire x1="-4.5" y1="1.65" x2="4.5" y2="1.65" width="0.2032" layer="21"/>
<wire x1="4.5" y1="1.65" x2="4.5" y2="-1.65" width="0.2032" layer="21"/>
<wire x1="4.5" y1="-1.65" x2="-4.5" y2="-1.65" width="0.2032" layer="21"/>
<pad name="P$1" x="-6.35" y="0" drill="0.9" diameter="1.8796"/>
<pad name="P$2" x="6.35" y="0" drill="0.9" diameter="1.8796"/>
<text x="-4.445" y="2.54" size="0.8128" layer="25" font="vector" ratio="15">&gt;Name</text>
<text x="-3.429" y="-0.381" size="0.8128" layer="21" font="vector" ratio="15">&gt;Value</text>
</package>
<package name="AXIAL-0.6">
<description>1W Resistor, 0.6" wide&lt;p&gt;

Yageo CFR series &lt;a href="http://www.yageo.com/pdf/yageo/Leaded-R_CFR_2008.pdf"&gt;http://www.yageo.com/pdf/yageo/Leaded-R_CFR_2008.pdf&lt;/a&gt;</description>
<wire x1="-5.75" y1="-2.25" x2="-5.75" y2="2.25" width="0.2032" layer="21"/>
<wire x1="-5.75" y1="2.25" x2="5.75" y2="2.25" width="0.2032" layer="21"/>
<wire x1="5.75" y1="2.25" x2="5.75" y2="-2.25" width="0.2032" layer="21"/>
<wire x1="5.75" y1="-2.25" x2="-5.75" y2="-2.25" width="0.2032" layer="21"/>
<pad name="P$1" x="-7.62" y="0" drill="1.2" diameter="1.8796"/>
<pad name="P$2" x="7.62" y="0" drill="1.2" diameter="1.8796"/>
<text x="-5.715" y="3.175" size="0.8128" layer="25" font="vector" ratio="15">&gt;Name</text>
<text x="-4.064" y="-0.381" size="0.8128" layer="21" font="vector" ratio="15">&gt;Value</text>
</package>
<package name="AXIAL-0.8">
<description>2W Resistor, 0.8" wide&lt;p&gt;

Yageo CFR series &lt;a href="http://www.yageo.com/pdf/yageo/Leaded-R_CFR_2008.pdf"&gt;http://www.yageo.com/pdf/yageo/Leaded-R_CFR_2008.pdf&lt;/a&gt;</description>
<wire x1="-7.75" y1="-2.5" x2="-7.75" y2="2.5" width="0.2032" layer="21"/>
<wire x1="-7.75" y1="2.5" x2="7.75" y2="2.5" width="0.2032" layer="21"/>
<wire x1="7.75" y1="2.5" x2="7.75" y2="-2.5" width="0.2032" layer="21"/>
<wire x1="7.75" y1="-2.5" x2="-7.75" y2="-2.5" width="0.2032" layer="21"/>
<pad name="P$1" x="-10.16" y="0" drill="1.2" diameter="1.8796"/>
<pad name="P$2" x="10.16" y="0" drill="1.2" diameter="1.8796"/>
<text x="-7.62" y="3.175" size="0.8128" layer="25" font="vector" ratio="15">&gt;Name</text>
<text x="-5.969" y="-0.381" size="0.8128" layer="21" font="vector" ratio="15">&gt;Value</text>
</package>
<package name="AXIAL-0.3-KIT">
<description>&lt;h3&gt;AXIAL-0.3-KIT&lt;/h3&gt;

Commonly used for 1/4W through-hole resistors. 0.3" pitch between holes.&lt;br&gt;
&lt;br&gt;

&lt;b&gt;Warning:&lt;/b&gt; This is the KIT version of the AXIAL-0.3 package. This package has a smaller diameter top stop mask, which doesn't cover the diameter of the pad. This means only the bottom side of the pads' copper will be exposed. You'll only be able to solder to the bottom side.</description>
<wire x1="-2.54" y1="1.27" x2="2.54" y2="1.27" width="0.254" layer="21"/>
<wire x1="2.54" y1="1.27" x2="2.54" y2="0" width="0.254" layer="21"/>
<wire x1="2.54" y1="0" x2="2.54" y2="-1.27" width="0.254" layer="21"/>
<wire x1="2.54" y1="-1.27" x2="-2.54" y2="-1.27" width="0.254" layer="21"/>
<wire x1="-2.54" y1="-1.27" x2="-2.54" y2="0" width="0.254" layer="21"/>
<wire x1="-2.54" y1="0" x2="-2.54" y2="1.27" width="0.254" layer="21"/>
<wire x1="2.54" y1="0" x2="2.794" y2="0" width="0.254" layer="21"/>
<wire x1="-2.54" y1="0" x2="-2.794" y2="0" width="0.254" layer="21"/>
<pad name="P$1" x="-3.81" y="0" drill="1.016" diameter="2.032" stop="no"/>
<pad name="P$2" x="3.81" y="0" drill="1.016" diameter="2.032" stop="no"/>
<text x="-2.54" y="1.27" size="0.4064" layer="25" font="vector">&gt;Name</text>
<text x="-2.159" y="-0.762" size="1.27" layer="21" font="vector" ratio="15">&gt;Value</text>
<polygon width="0.127" layer="30">
<vertex x="3.8201" y="-0.9449" curve="-90"/>
<vertex x="2.8652" y="-0.0152" curve="-90.011749"/>
<vertex x="3.8176" y="0.9602" curve="-90"/>
<vertex x="4.7676" y="-0.0178" curve="-90.024193"/>
</polygon>
<polygon width="0.127" layer="29">
<vertex x="3.8176" y="-0.4369" curve="-90.012891"/>
<vertex x="3.3731" y="-0.0127" curve="-90"/>
<vertex x="3.8176" y="0.4546" curve="-90"/>
<vertex x="4.2595" y="-0.0025" curve="-90.012967"/>
</polygon>
<polygon width="0.127" layer="30">
<vertex x="-3.8075" y="-0.9525" curve="-90"/>
<vertex x="-4.7624" y="-0.0228" curve="-90.011749"/>
<vertex x="-3.81" y="0.9526" curve="-90"/>
<vertex x="-2.86" y="-0.0254" curve="-90.024193"/>
</polygon>
<polygon width="0.127" layer="29">
<vertex x="-3.81" y="-0.4445" curve="-90.012891"/>
<vertex x="-4.2545" y="-0.0203" curve="-90"/>
<vertex x="-3.81" y="0.447" curve="-90"/>
<vertex x="-3.3681" y="-0.0101" curve="-90.012967"/>
</polygon>
</package>
<package name="AXIAL-0.3EZ">
<description>This is the "EZ" version of the standard .3" spaced resistor package.&lt;br&gt;
It has a reduced top mask to make it harder to install upside-down.</description>
<wire x1="-2.54" y1="0.762" x2="2.54" y2="0.762" width="0.2032" layer="21"/>
<wire x1="2.54" y1="0.762" x2="2.54" y2="0" width="0.2032" layer="21"/>
<wire x1="2.54" y1="0" x2="2.54" y2="-0.762" width="0.2032" layer="21"/>
<wire x1="2.54" y1="-0.762" x2="-2.54" y2="-0.762" width="0.2032" layer="21"/>
<wire x1="-2.54" y1="-0.762" x2="-2.54" y2="0" width="0.2032" layer="21"/>
<wire x1="-2.54" y1="0" x2="-2.54" y2="0.762" width="0.2032" layer="21"/>
<wire x1="2.54" y1="0" x2="2.794" y2="0" width="0.2032" layer="21"/>
<wire x1="-2.54" y1="0" x2="-2.794" y2="0" width="0.2032" layer="21"/>
<pad name="P$1" x="-3.81" y="0" drill="0.9" diameter="1.8796" stop="no"/>
<pad name="P$2" x="3.81" y="0" drill="0.9" diameter="1.8796" stop="no"/>
<text x="-2.54" y="1.27" size="0.4064" layer="25" font="vector">&gt;Name</text>
<text x="-2.032" y="-0.381" size="1.016" layer="21" font="vector" ratio="15">&gt;Value</text>
<circle x="-3.81" y="0" radius="0.508" width="0" layer="29"/>
<circle x="3.81" y="0" radius="0.523634375" width="0" layer="29"/>
<circle x="-3.81" y="0" radius="1.02390625" width="0" layer="30"/>
<circle x="3.81" y="0" radius="1.04726875" width="0" layer="30"/>
</package>
</packages>
<symbols>
<symbol name="RESISTOR">
<wire x1="-2.54" y1="0" x2="-2.159" y2="1.016" width="0.1524" layer="94"/>
<wire x1="-2.159" y1="1.016" x2="-1.524" y2="-1.016" width="0.1524" layer="94"/>
<wire x1="-1.524" y1="-1.016" x2="-0.889" y2="1.016" width="0.1524" layer="94"/>
<wire x1="-0.889" y1="1.016" x2="-0.254" y2="-1.016" width="0.1524" layer="94"/>
<wire x1="-0.254" y1="-1.016" x2="0.381" y2="1.016" width="0.1524" layer="94"/>
<wire x1="0.381" y1="1.016" x2="1.016" y2="-1.016" width="0.1524" layer="94"/>
<wire x1="1.016" y1="-1.016" x2="1.651" y2="1.016" width="0.1524" layer="94"/>
<wire x1="1.651" y1="1.016" x2="2.286" y2="-1.016" width="0.1524" layer="94"/>
<wire x1="2.286" y1="-1.016" x2="2.54" y2="0" width="0.1524" layer="94"/>
<text x="-3.81" y="1.4986" size="1.778" layer="95">&gt;NAME</text>
<text x="-3.81" y="-3.302" size="1.778" layer="96">&gt;VALUE</text>
<pin name="2" x="5.08" y="0" visible="off" length="short" direction="pas" swaplevel="1" rot="R180"/>
<pin name="1" x="-5.08" y="0" visible="off" length="short" direction="pas" swaplevel="1"/>
</symbol>
</symbols>
<devicesets>
<deviceset name="RESISTOR" prefix="R" uservalue="yes">
<description>&lt;b&gt;Resistor&lt;/b&gt;
Basic schematic elements and footprints for 0603, 1206, and PTH resistors.</description>
<gates>
<gate name="G$1" symbol="RESISTOR" x="0" y="0"/>
</gates>
<devices>
<device name="1206" package="1206">
<connects>
<connect gate="G$1" pin="1" pad="1"/>
<connect gate="G$1" pin="2" pad="2"/>
</connects>
<technologies>
<technology name=""/>
</technologies>
</device>
<device name="AXIAL-0.3" package="AXIAL-0.3">
<connects>
<connect gate="G$1" pin="1" pad="P$1"/>
<connect gate="G$1" pin="2" pad="P$2"/>
</connects>
<technologies>
<technology name=""/>
</technologies>
</device>
<device name="2010" package="R2010">
<connects>
<connect gate="G$1" pin="1" pad="1"/>
<connect gate="G$1" pin="2" pad="2"/>
</connects>
<technologies>
<technology name=""/>
</technologies>
</device>
<device name="0805-RES" package="0805">
<connects>
<connect gate="G$1" pin="1" pad="1"/>
<connect gate="G$1" pin="2" pad="2"/>
</connects>
<technologies>
<technology name=""/>
</technologies>
</device>
<device name="0603-RES" package="0603-RES">
<connects>
<connect gate="G$1" pin="1" pad="1"/>
<connect gate="G$1" pin="2" pad="2"/>
</connects>
<technologies>
<technology name=""/>
</technologies>
</device>
<device name="0402-RES" package="0402-RES">
<connects>
<connect gate="G$1" pin="1" pad="1"/>
<connect gate="G$1" pin="2" pad="2"/>
</connects>
<technologies>
<technology name=""/>
</technologies>
</device>
<device name="PTH-1/6W" package="1/6W-RES">
<connects>
<connect gate="G$1" pin="1" pad="1"/>
<connect gate="G$1" pin="2" pad="2"/>
</connects>
<technologies>
<technology name=""/>
</technologies>
</device>
<device name="2512" package="R2512">
<connects>
<connect gate="G$1" pin="1" pad="1"/>
<connect gate="G$1" pin="2" pad="2"/>
</connects>
<technologies>
<technology name=""/>
</technologies>
</device>
<device name="PTH-1/4W" package="AXIAL-0.4">
<connects>
<connect gate="G$1" pin="1" pad="P$1"/>
<connect gate="G$1" pin="2" pad="P$2"/>
</connects>
<technologies>
<technology name=""/>
</technologies>
</device>
<device name="PTH-1/2W" package="AXIAL-0.5">
<connects>
<connect gate="G$1" pin="1" pad="P$1"/>
<connect gate="G$1" pin="2" pad="P$2"/>
</connects>
<technologies>
<technology name=""/>
</technologies>
</device>
<device name="PTH-1W" package="AXIAL-0.6">
<connects>
<connect gate="G$1" pin="1" pad="P$1"/>
<connect gate="G$1" pin="2" pad="P$2"/>
</connects>
<technologies>
<technology name=""/>
</technologies>
</device>
<device name="PTH-2W" package="AXIAL-0.8">
<connects>
<connect gate="G$1" pin="1" pad="P$1"/>
<connect gate="G$1" pin="2" pad="P$2"/>
</connects>
<technologies>
<technology name=""/>
</technologies>
</device>
<device name="KIT" package="AXIAL-0.3-KIT">
<connects>
<connect gate="G$1" pin="1" pad="P$1"/>
<connect gate="G$1" pin="2" pad="P$2"/>
</connects>
<technologies>
<technology name=""/>
</technologies>
</device>
<device name="EZ" package="AXIAL-0.3EZ">
<connects>
<connect gate="G$1" pin="1" pad="P$1"/>
<connect gate="G$1" pin="2" pad="P$2"/>
</connects>
<technologies>
<technology name=""/>
</technologies>
</device>
</devices>
</deviceset>
</devicesets>
</library>
</libraries>
<attributes>
</attributes>
<variantdefs>
</variantdefs>
<classes>
<class number="0" name="default" width="0" drill="0">
</class>
</classes>
<parts>
<part name="JP1" library="SparkFun-Connectors" deviceset="M08" device=""/>
<part name="U$1" library="rveer" deviceset="NEWHAVENLCD" device=""/>
<part name="C1" library="SparkFun-Capacitors" deviceset="1.0UF-25V-+80/-20(0805)" device="" value="1.0uF"/>
<part name="C2" library="SparkFun-Capacitors" deviceset="1.0UF-25V-+80/-20(0805)" device="" value="1.0uF"/>
<part name="C3" library="SparkFun-Capacitors" deviceset="1.0UF-25V-+80/-20(0805)" device="" value="1.0uF"/>
<part name="C4" library="SparkFun-Capacitors" deviceset="1.0UF-25V-+80/-20(0805)" device="" value="1.0uF"/>
<part name="C5" library="SparkFun-Capacitors" deviceset="1.0UF-25V-+80/-20(0805)" device="" value="1.0uF"/>
<part name="C6" library="SparkFun-Capacitors" deviceset="1.0UF-25V-+80/-20(0805)" device="" value="1.0uF"/>
<part name="C7" library="SparkFun-Capacitors" deviceset="1.0UF-25V-+80/-20(0805)" device="" value="1.0uF"/>
<part name="C8" library="SparkFun-Capacitors" deviceset="1.0UF-25V-+80/-20(0805)" device="" value="1.0uF"/>
<part name="GND1" library="SparkFun-Aesthetics" deviceset="GND" device=""/>
<part name="SUPPLY1" library="SparkFun-Aesthetics" deviceset="VCC" device=""/>
<part name="GND3" library="SparkFun-Aesthetics" deviceset="GND" device=""/>
<part name="R1" library="SparkFun-Passives" deviceset="RESISTOR" device="0805-RES"/>
<part name="SUPPLY3" library="SparkFun-Aesthetics" deviceset="VCC" device=""/>
</parts>
<sheets>
<sheet>
<plain>
</plain>
<instances>
<instance part="JP1" gate="G$1" x="33.02" y="58.42"/>
<instance part="U$1" gate="G$1" x="106.68" y="48.26"/>
<instance part="C1" gate="G$1" x="81.28" y="71.12" rot="R90"/>
<instance part="C2" gate="G$1" x="86.36" y="68.58" rot="R90"/>
<instance part="C3" gate="G$1" x="81.28" y="66.04" rot="R90"/>
<instance part="C4" gate="G$1" x="86.36" y="63.5" rot="R90"/>
<instance part="C5" gate="G$1" x="81.28" y="60.96" rot="R90"/>
<instance part="C6" gate="G$1" x="88.9" y="58.42" rot="R90"/>
<instance part="C7" gate="G$1" x="88.9" y="53.34" rot="R90"/>
<instance part="C8" gate="G$1" x="88.9" y="48.26" rot="R90"/>
<instance part="GND1" gate="1" x="58.42" y="20.32"/>
<instance part="SUPPLY1" gate="G$1" x="48.26" y="66.04" rot="R270"/>
<instance part="GND3" gate="1" x="48.26" y="73.66" rot="R180"/>
<instance part="R1" gate="G$1" x="132.08" y="43.18" rot="R90"/>
<instance part="SUPPLY3" gate="G$1" x="66.04" y="20.32" rot="R180"/>
</instances>
<busses>
</busses>
<nets>
<net name="N$1" class="0">
<segment>
<pinref part="C1" gate="G$1" pin="2"/>
<pinref part="U$1" gate="G$1" pin="V0"/>
<wire x1="83.82" y1="71.12" x2="96.52" y2="71.12" width="0.1524" layer="91"/>
</segment>
</net>
<net name="N$3" class="0">
<segment>
<pinref part="C2" gate="G$1" pin="2"/>
<pinref part="U$1" gate="G$1" pin="V1"/>
<wire x1="88.9" y1="68.58" x2="96.52" y2="68.58" width="0.1524" layer="91"/>
</segment>
</net>
<net name="N$4" class="0">
<segment>
<pinref part="U$1" gate="G$1" pin="V2"/>
<pinref part="C3" gate="G$1" pin="2"/>
<wire x1="96.52" y1="66.04" x2="83.82" y2="66.04" width="0.1524" layer="91"/>
</segment>
</net>
<net name="N$5" class="0">
<segment>
<pinref part="U$1" gate="G$1" pin="V3"/>
<pinref part="C4" gate="G$1" pin="2"/>
<wire x1="96.52" y1="63.5" x2="88.9" y2="63.5" width="0.1524" layer="91"/>
</segment>
</net>
<net name="N$6" class="0">
<segment>
<pinref part="U$1" gate="G$1" pin="V4"/>
<pinref part="C5" gate="G$1" pin="2"/>
<wire x1="96.52" y1="60.96" x2="83.82" y2="60.96" width="0.1524" layer="91"/>
</segment>
</net>
<net name="N$7" class="0">
<segment>
<pinref part="U$1" gate="G$1" pin="C2-"/>
<pinref part="C6" gate="G$1" pin="2"/>
<wire x1="96.52" y1="58.42" x2="91.44" y2="58.42" width="0.1524" layer="91"/>
</segment>
</net>
<net name="N$8" class="0">
<segment>
<pinref part="C6" gate="G$1" pin="1"/>
<wire x1="83.82" y1="58.42" x2="81.28" y2="58.42" width="0.1524" layer="91"/>
<wire x1="81.28" y1="58.42" x2="81.28" y2="55.88" width="0.1524" layer="91"/>
<pinref part="U$1" gate="G$1" pin="C2+"/>
<wire x1="81.28" y1="55.88" x2="96.52" y2="55.88" width="0.1524" layer="91"/>
</segment>
</net>
<net name="N$9" class="0">
<segment>
<pinref part="U$1" gate="G$1" pin="C1+"/>
<pinref part="C7" gate="G$1" pin="2"/>
<wire x1="96.52" y1="53.34" x2="91.44" y2="53.34" width="0.1524" layer="91"/>
</segment>
</net>
<net name="N$10" class="0">
<segment>
<pinref part="C7" gate="G$1" pin="1"/>
<wire x1="83.82" y1="53.34" x2="81.28" y2="53.34" width="0.1524" layer="91"/>
<wire x1="81.28" y1="53.34" x2="81.28" y2="50.8" width="0.1524" layer="91"/>
<pinref part="U$1" gate="G$1" pin="C1-"/>
<wire x1="81.28" y1="50.8" x2="96.52" y2="50.8" width="0.1524" layer="91"/>
</segment>
</net>
<net name="N$11" class="0">
<segment>
<pinref part="U$1" gate="G$1" pin="VOUT"/>
<pinref part="C8" gate="G$1" pin="2"/>
<wire x1="96.52" y1="48.26" x2="91.44" y2="48.26" width="0.1524" layer="91"/>
</segment>
</net>
<net name="GND" class="0">
<segment>
<pinref part="C1" gate="G$1" pin="1"/>
<wire x1="76.2" y1="71.12" x2="58.42" y2="71.12" width="0.1524" layer="91"/>
<wire x1="58.42" y1="71.12" x2="58.42" y2="68.58" width="0.1524" layer="91"/>
<pinref part="C5" gate="G$1" pin="1"/>
<wire x1="58.42" y1="68.58" x2="58.42" y2="66.04" width="0.1524" layer="91"/>
<wire x1="58.42" y1="66.04" x2="58.42" y2="63.5" width="0.1524" layer="91"/>
<wire x1="58.42" y1="63.5" x2="58.42" y2="60.96" width="0.1524" layer="91"/>
<wire x1="58.42" y1="60.96" x2="58.42" y2="45.72" width="0.1524" layer="91"/>
<wire x1="58.42" y1="45.72" x2="58.42" y2="22.86" width="0.1524" layer="91"/>
<wire x1="76.2" y1="60.96" x2="58.42" y2="60.96" width="0.1524" layer="91"/>
<junction x="58.42" y="60.96"/>
<pinref part="C3" gate="G$1" pin="1"/>
<wire x1="76.2" y1="66.04" x2="58.42" y2="66.04" width="0.1524" layer="91"/>
<junction x="58.42" y="66.04"/>
<pinref part="C2" gate="G$1" pin="1"/>
<wire x1="81.28" y1="68.58" x2="58.42" y2="68.58" width="0.1524" layer="91"/>
<junction x="58.42" y="68.58"/>
<pinref part="C4" gate="G$1" pin="1"/>
<wire x1="81.28" y1="63.5" x2="58.42" y2="63.5" width="0.1524" layer="91"/>
<junction x="58.42" y="63.5"/>
<pinref part="U$1" gate="G$1" pin="VSS"/>
<wire x1="96.52" y1="45.72" x2="81.28" y2="45.72" width="0.1524" layer="91"/>
<junction x="58.42" y="45.72"/>
<pinref part="C8" gate="G$1" pin="1"/>
<wire x1="81.28" y1="45.72" x2="58.42" y2="45.72" width="0.1524" layer="91"/>
<wire x1="83.82" y1="48.26" x2="81.28" y2="48.26" width="0.1524" layer="91"/>
<wire x1="81.28" y1="48.26" x2="81.28" y2="45.72" width="0.1524" layer="91"/>
<junction x="81.28" y="45.72"/>
<pinref part="GND1" gate="1" pin="GND"/>
</segment>
<segment>
<pinref part="JP1" gate="G$1" pin="8"/>
<wire x1="38.1" y1="68.58" x2="48.26" y2="68.58" width="0.1524" layer="91"/>
<pinref part="GND3" gate="1" pin="GND"/>
<wire x1="48.26" y1="68.58" x2="48.26" y2="71.12" width="0.1524" layer="91"/>
</segment>
</net>
<net name="VCC" class="0">
<segment>
<pinref part="U$1" gate="G$1" pin="VDD"/>
<wire x1="96.52" y1="43.18" x2="66.04" y2="43.18" width="0.1524" layer="91"/>
<wire x1="66.04" y1="43.18" x2="66.04" y2="20.32" width="0.1524" layer="91"/>
<pinref part="SUPPLY3" gate="G$1" pin="VCC"/>
</segment>
<segment>
<pinref part="JP1" gate="G$1" pin="7"/>
<wire x1="38.1" y1="66.04" x2="48.26" y2="66.04" width="0.1524" layer="91"/>
<pinref part="SUPPLY1" gate="G$1" pin="VCC"/>
</segment>
<segment>
<pinref part="R1" gate="G$1" pin="2"/>
<wire x1="132.08" y1="50.8" x2="132.08" y2="48.26" width="0.1524" layer="91"/>
<label x="132.08" y="50.8" size="1.27" layer="95" rot="R90" xref="yes"/>
</segment>
</net>
<net name="N$13" class="0">
<segment>
<pinref part="R1" gate="G$1" pin="1"/>
<wire x1="132.08" y1="38.1" x2="132.08" y2="33.02" width="0.1524" layer="91"/>
<pinref part="U$1" gate="G$1" pin="LED+"/>
<wire x1="132.08" y1="33.02" x2="127" y2="33.02" width="0.1524" layer="91"/>
</segment>
</net>
<net name="SI" class="0">
<segment>
<pinref part="U$1" gate="G$1" pin="SI"/>
<wire x1="96.52" y1="40.64" x2="81.28" y2="40.64" width="0.1524" layer="91"/>
<label x="81.28" y="40.64" size="1.27" layer="95" rot="R180" xref="yes"/>
</segment>
<segment>
<pinref part="JP1" gate="G$1" pin="6"/>
<wire x1="38.1" y1="63.5" x2="43.18" y2="63.5" width="0.1524" layer="91"/>
<label x="43.18" y="63.5" size="1.27" layer="95" xref="yes"/>
</segment>
</net>
<net name="SCL" class="0">
<segment>
<pinref part="U$1" gate="G$1" pin="SCL"/>
<wire x1="96.52" y1="38.1" x2="81.28" y2="38.1" width="0.1524" layer="91"/>
<label x="81.28" y="38.1" size="1.27" layer="95" rot="R180" xref="yes"/>
</segment>
<segment>
<pinref part="JP1" gate="G$1" pin="5"/>
<wire x1="38.1" y1="60.96" x2="43.18" y2="60.96" width="0.1524" layer="91"/>
<label x="43.18" y="60.96" size="1.27" layer="95" xref="yes"/>
</segment>
</net>
<net name="A0" class="0">
<segment>
<pinref part="U$1" gate="G$1" pin="A0"/>
<wire x1="96.52" y1="35.56" x2="81.28" y2="35.56" width="0.1524" layer="91"/>
<label x="81.28" y="35.56" size="1.27" layer="95" rot="R180" xref="yes"/>
</segment>
<segment>
<pinref part="JP1" gate="G$1" pin="4"/>
<wire x1="38.1" y1="58.42" x2="43.18" y2="58.42" width="0.1524" layer="91"/>
<label x="43.18" y="58.42" size="1.27" layer="95" xref="yes"/>
</segment>
</net>
<net name="!RST" class="0">
<segment>
<pinref part="U$1" gate="G$1" pin="!RST"/>
<wire x1="96.52" y1="33.02" x2="81.28" y2="33.02" width="0.1524" layer="91"/>
<label x="81.28" y="33.02" size="1.27" layer="95" rot="R180" xref="yes"/>
</segment>
<segment>
<pinref part="JP1" gate="G$1" pin="3"/>
<wire x1="38.1" y1="55.88" x2="43.18" y2="55.88" width="0.1524" layer="91"/>
<label x="43.18" y="55.88" size="1.27" layer="95" xref="yes"/>
</segment>
</net>
<net name="!CS" class="0">
<segment>
<pinref part="U$1" gate="G$1" pin="!CS1"/>
<wire x1="96.52" y1="30.48" x2="81.28" y2="30.48" width="0.1524" layer="91"/>
<label x="81.28" y="30.48" size="1.27" layer="95" rot="R180" xref="yes"/>
</segment>
<segment>
<pinref part="JP1" gate="G$1" pin="2"/>
<wire x1="38.1" y1="53.34" x2="43.18" y2="53.34" width="0.1524" layer="91"/>
<label x="43.18" y="53.34" size="1.27" layer="95" xref="yes"/>
</segment>
</net>
<net name="BACKLIGHT-" class="0">
<segment>
<pinref part="U$1" gate="G$1" pin="LED-"/>
<wire x1="127" y1="30.48" x2="132.08" y2="30.48" width="0.1524" layer="91"/>
<label x="132.08" y="30.48" size="1.27" layer="95" xref="yes"/>
</segment>
<segment>
<pinref part="JP1" gate="G$1" pin="1"/>
<wire x1="38.1" y1="50.8" x2="43.18" y2="50.8" width="0.1524" layer="91"/>
<label x="43.18" y="50.8" size="1.27" layer="95" xref="yes"/>
</segment>
</net>
</nets>
</sheet>
</sheets>
</schematic>
</drawing>
</eagle>
